REG|000001|18/10/2015|08:07:35|728365|168.00|0001230010040310000017090167584|001004031000001709
REG|000002|18/10/2015|08:10:08|728366|440.00|0001230010040310000021530439595|001004031000002153
REG|000003|18/10/2015|09:30:31|728411|549.50|0001230010500310000014300549498|001050031000001430
REG|000004|18/10/2015|09:30:52|728412|253.62|0001230010110310000010470253624|001011031000001047
REG|000005|18/10/2015|10:00:53|728433|439.59|0001230010460310000013850439595|001046031000001385
REG|000006|18/10/2015|10:01:16|728434|473.17|0001230010430310000013940473171|001043031000001394
REG|000007|18/10/2015|10:03:56|728435|309.71|0001230010430310000013910309710|001043031000001391
REG|000008|18/10/2015|10:17:41|728444|329.69|0001230010020310000015410329698|001002031000001541
REG|000009|18/10/2015|10:38:16|728470|549.49|0001230010500310000011710549498|001050031000001171
REG|000010|18/10/2015|10:42:11|728474|549.49|0001230010120310000014550549495|001012031000001455
REG|000011|18/10/2015|10:44:54|728479|550.00|0001230010030310000019500549494|001003031000001950
REG|000012|18/10/2015|10:45:21|728481|262.06|0001230010110310000013160262608|001011031000001316
REG|000013|18/10/2015|11:04:21|728504|253.62|0001230010040310000018170253625|001004031000001817
REG|000014|18/10/2015|11:07:24|728508|460.00|0001230010300310000019310439590|001030031000001931
REG|000015|18/10/2015|11:10:08|728511|418.96|0001230010070310000006380418966|001007031000000638
REG|000016|18/10/2015|11:13:32|728517|418.96|0001230010420310000005700418968|001042031000000570
REG|000017|18/10/2015|09:16:25|728521|549.49|0001230010380310000008820549496|001038031000000882
REG|000018|18/10/2015|09:19:35|728526|549.49|0001230010380310000008850549499|001038031000000885
REG|000019|18/10/2015|11:24:23|728531|2307.87|0001230010520310000010690769296|001052031000001069
REG|000020|18/10/2015|11:27:23|728533|404.02|0001230010500310000008340404201|001050031000000834
REG|000021|18/10/2015|11:28:53|728537|846.78|0001230010470110000000370846781|001047011000000037
REG|000022|18/10/2015|11:38:05|728545|579.20|0001230010020310000014820559200|001002031000001482
REG|000023|18/10/2015|11:51:58|728565|262.06|0001230010040310000019580262602|001004031000001958
REG|000024|18/10/2015|11:54:56|728567|550.00|0001230010460310000013250549498|001046031000001325
REG|000025|18/10/2015|12:02:43|728580|449.49|0001230010460310000012090549494|001046031000001209
REG|000026|18/10/2015|12:04:52|728581|549.49|0001230010460310000010840549491|001046031000001084
REG|000027|18/10/2015|12:06:23|728586|300.00|0001230010460310000012090549494|001046031000001209
REG|000028|18/10/2015|12:11:54|728588|439.59|0001230010210310000035030439594|001021031000003503
REG|000029|18/10/2015|11:13:46|728589|549.49|0001230010050310000019030549498|001005031000001903
REG|000030|18/10/2015|11:30:29|728616|440.00|0001230010050310000017930439596|001005031000001793
REG|000031|18/10/2015|12:33:57|728618|329.69|0001230010520310000010740329695|001052031000001074
REG|000032|18/10/2015|12:36:01|728620|549.49|0001230010520310000010770549493|001052031000001077
REG|000033|18/10/2015|12:37:16|728621|330.00|0001230010470310000026650329699|001047031000002665
REG|000034|18/10/2015|12:38:00|728623|549.49|0001230010530310000000550549498|001053031000000055
REG|000035|18/10/2015|12:39:19|728624|329.69|0001230010530310000000560329691|001053031000000056
REG|000036|18/10/2015|12:46:04|728632|422.00|0001230010030310000015410422681|001003031000001541
REG|000037|18/10/2015|12:47:54|728635|530.08|0001230010430310000016210530802|001043031000001621
REG|000038|18/10/2015|12:50:15|728641|530.08|0001230010430310000016170530800|001043031000001617
REG|000039|18/10/2015|12:52:15|728644|318.04|0001230010430310000016250318407|001043031000001625
REG|000040|18/10/2015|12:59:01|728652|780.00|0001230010490310000020690769291|001049031000002069
REG|000041|18/10/2015|13:06:43|728671|769.29|0001230010520310000013850769296|001052031000001385
REG|000042|18/10/2015|13:11:13|728683|439.59|0001230010040310000020180439590|001004031000002018
REG|000043|18/10/2015|13:13:37|728686|253.62|0001230010090310000014750253621|001009031000001475
REG|000044|18/10/2015|13:15:13|728688|422.68|0001230010090310000014770422685|001009031000001477
REG|000045|18/10/2015|13:22:42|728702|549.49|0001230010140310000021900549493|001014031000002190
REG|000046|18/10/2015|13:23:57|728705|530.08|0001230010430310000016180530808|001043031000001618
REG|000047|18/10/2015|13:24:16|728706|439.59|0001230010420310000007200439593|001042031000000720
REG|000048|18/10/2015|13:27:26|728711|278.98|0001230010140310000020430278987|001014031000002043
REG|000049|18/10/2015|13:29:55|728714|769.29|0001230010520310000013890769298|001052031000001389
REG|000050|18/10/2015|13:38:35|728732|549.49|0001230010420310000009390549496|001042031000000939
REG|000051|18/10/2015|13:39:09|728734|754.14|0001230010500310000006080251386|001050031000000608
REG|000052|18/10/2015|13:41:28|728737|549.49|0001230010220310000018180549493|001022031000001818
REG|000053|18/10/2015|12:42:56|728738|550.00|0001230010050310000019070549499|001005031000001907
REG|000054|18/10/2015|13:47:15|728752|338.50|0001230010520310000008660338159|001052031000000866
REG|000055|18/10/2015|13:54:44|728771|550.00|0001230010530310000001740549497|001053031000000174
REG|000056|18/10/2015|13:56:00|728773|329.69|0001230010090310000018110329690|001009031000001811
REG|000057|18/10/2015|14:04:40|728787|253.62|0001230010090310000015500253621|001009031000001550
REG|000058|18/10/2015|14:06:23|728795|253.62|0001230010090310000015490253623|001009031000001549
REG|000059|18/10/2015|14:08:41|728799|418.96|0001230010500310000006770418964|001050031000000677
REG|000060|18/10/2015|14:09:41|728801|549.49|0001230010520310000010400549491|001052031000001040
REG|000061|18/10/2015|14:10:46|728808|329.69|0001230010530310000001190329697|001053031000000119
REG|000062|18/10/2015|14:12:27|728809|219.80|0001230010530310000003390219801|001053031000000339
REG|000063|18/10/2015|14:17:53|728820|560.00|0001230010490310000021460549491|001049031000002146
REG|000064|18/10/2015|14:18:42|728824|456.50|0001230010520310000012520456508|001052031000001252
REG|000065|18/10/2015|14:19:23|728826|439.59|0001230010430310000013660439592|001043031000001366
REG|000066|18/10/2015|14:21:18|728827|251.38|0001230010210310000028740251383|001021031000002874
REG|000067|18/10/2015|14:21:24|728828|219.80|0001230010090310000018220219807|001009031000001822
REG|000068|18/10/2015|14:23:50|728831|404.02|0001230010500310000008380404202|001050031000000838
REG|000069|18/10/2015|13:27:03|728835|549.49|0001230010050310000016390549498|001005031000001639
REG|000070|18/10/2015|14:26:41|728837|549.50|0001230010020310000015060549496|001002031000001506
REG|000071|18/10/2015|14:32:49|728849|530.00|0001230010020310000015860530803|001002031000001586
REG|000072|18/10/2015|14:34:16|728854|549.49|0001230010460310000013060549498|001046031000001306
REG|000073|18/10/2015|14:34:40|728855|447.36|0001230010460310000013910447364|001046031000001391
REG|000074|18/10/2015|14:36:50|728858|418.96|0001230010090310000013510418961|001009031000001351
REG|000075|18/10/2015|14:40:36|728865|418.96|0001230010090310000013520418969|001009031000001352
REG|000076|18/10/2015|14:42:23|728869|549.46|0001230010500310000012290549494|001050031000001229
REG|000077|18/10/2015|14:26:48|728871|330.00|0001230010540310000000050329696|001054031000000005
REG|000078|18/10/2015|12:45:06|728877|170.57|0001230010370310000010730170571|001037031000001073
REG|000079|18/10/2015|14:29:33|728881|500.00|0001230010420310000009800549490|001042031000000980
REG|000080|18/10/2015|14:51:17|728883|329.69|0001230010040310000019880329697|001004031000001988
REG|000081|18/10/2015|14:53:12|728888|549.49|0001230010300310000019290549491|001030031000001929
REG|000082|18/10/2015|14:33:07|728889|50.00|0001230010420310000009800549490|001042031000000980
REG|000083|18/10/2015|15:08:07|728898|161.00|0001230010030310000018010160628|001003031000001801
REG|000084|18/10/2015|15:09:40|728905|560.00|0001230010090310000017530559209|001009031000001753
REG|000085|18/10/2015|15:11:18|728912|549.49|0001230010140310000021870549499|001014031000002187
REG|000086|18/10/2015|15:11:33|728913|262.06|0001230010110310000013830262608|001011031000001383
REG|000087|18/10/2015|15:12:18|728915|200.00|0001230010460310000012630329696|001046031000001263
REG|000088|18/10/2015|15:13:05|728920|422.68|0001230010060310000010330422682|001006031000001033
REG|000089|18/10/2015|15:14:05|728923|769.29|0001230010520310000012780769293|001052031000001278
REG|000090|18/10/2015|15:14:49|728927|439.59|0001230010500310000013110439593|001050031000001311
REG|000091|18/10/2015|15:15:10|728929|418.96|0001230010500310000006060418963|001050031000000606
REG|000092|18/10/2015|15:15:26|728930|550.00|0001230010030310000018020549497|001003031000001802
REG|000093|18/10/2015|15:19:16|728937|250.00|0001230010520310000012760769297|001052031000001276
REG|000094|18/10/2015|15:22:26|728939|329.69|0001230010090310000016510329690|001009031000001651
REG|000095|18/10/2015|15:30:38|728945|404.02|0001230010500310000008310404207|001050031000000831
REG|000096|18/10/2015|15:35:34|728949|549.49|0001230010140310000020420549496|001014031000002042
REG|000097|18/10/2015|15:35:52|728951|549.49|0001230010430310000018000549497|001043031000001800
REG|000098|18/10/2015|15:36:08|728952|219.80|0001230010430310000017930219809|001043031000001793
REG|000099|18/10/2015|15:42:09|728965|549.49|0001230010430310000015230549495|001043031000001523
REG|000100|18/10/2015|15:47:32|728981|418.96|0001230010500310000007060418961|001050031000000706
REG|000101|18/10/2015|15:51:09|728987|549.49|0001230010500310000014290549490|001050031000001429
REG|000102|18/10/2015|16:01:16|728999|549.49|0001230010430310000015870549490|001043031000001587
REG|000103|18/10/2015|16:02:51|729004|549.49|0001230010430310000017020549495|001043031000001702
REG|000104|18/10/2015|15:04:30|729006|422.68|0001230010060310000010350422687|001006031000001035
REG|000105|18/10/2015|16:02:39|729007|249.50|0001230010030310000019620249496|001003031000001962
REG|000106|18/10/2015|15:06:04|729011|450.00|0001230010050310000015850422683|001005031000001585
REG|000107|18/10/2015|15:07:01|729015|549.49|0001230010050310000017910549497|001005031000001791
REG|000108|18/10/2015|16:10:22|729017|335.52|0001230010430310000017860335526|001043031000001786
REG|000109|18/10/2015|16:13:29|729020|262.06|0001230010460310000012400262606|001046031000001240
REG|000110|18/10/2015|16:28:16|729031|219.80|0001230010460310000013840219800|001046031000001384
REG|000111|18/10/2015|16:36:05|729038|769.29|0001230010500310000012990769293|001050031000001299
REG|000112|18/10/2015|16:52:24|729065|549.49|0001230010430310000015190549493|001043031000001519
REG|000113|18/10/2015|16:59:31|729072|225.00|0001230010490310000021530219802|001049031000002153
REG|000114|18/10/2015|15:59:01|729074|329.69|0001230010050310000017950329693|001005031000001795
REG|000115|18/10/2015|17:06:10|729080|549.49|0001230010500310000012870549492|001050031000001287
REG|000116|18/10/2015|17:07:44|729082|550.00|0001230010500310000011730549494|001050031000001173
REG|000117|18/10/2015|17:15:55|729095|447.36|0001230010460310000013920447362|001046031000001392
REG|000118|18/10/2015|17:22:16|729102|418.96|0001230010030310000013940418964|001003031000001394
REG|000119|18/10/2015|17:23:09|729105|550.00|0001230010420310000007360549496|001042031000000736
REG|000120|18/10/2015|17:23:37|729108|770.00|0001230010430310000014050769291|001043031000001405
REG|000121|18/10/2015|17:27:36|729115|549.49|0001230010020310000017850549496|001002031000001785
REG|000122|18/10/2015|16:33:30|729124|549.49|0001230010380310000008860549497|001038031000000886
REG|000123|18/10/2015|17:34:53|729128|447.36|0001230010430310000017320447366|001043031000001732
REG|000124|18/10/2015|17:35:48|729130|450.00|0001230010460310000013900447366|001046031000001390
REG|000125|18/10/2015|16:35:53|729131|549.49|0001230010380310000008830549494|001038031000000883
REG|000126|18/10/2015|17:37:37|729137|846.78|0001230010470110000001750846789|001047011000000175
REG|000127|18/10/2015|17:40:36|729143|550.00|0001230010120310000012220549499|001012031000001222
REG|000128|18/10/2015|18:01:17|729173|253.62|0001230010090310000015190253626|001009031000001519
REG|000129|18/10/2015|18:03:01|729175|253.62|0001230010090310000015210253622|001009031000001521
REG|000130|18/10/2015|18:14:40|729190|418.96|0001230010310310000015900418968|001031031000001590
REG|000131|18/10/2015|17:18:45|729194|169.07|0001230010060310000010840169708|001006031000001084
REG|000132|18/10/2015|18:19:35|729199|659.00|0001230010090310000016740329692|001009031000001674
REG|000133|18/10/2015|17:20:24|729201|422.68|0001230010060310000010870422688|001006031000001087
REG|000134|18/10/2015|18:28:57|729217|447.50|0001230010460310000013880447360|001046031000001388
REG|000135|18/10/2015|18:32:17|729224|447.50|0001230010460310000013890447368|001046031000001389
REG|000136|18/10/2015|18:36:11|729226|330.00|0001230010220310000017480329697|001022031000001748
REG|000137|18/10/2015|18:39:29|729232|422.68|0001230010090310000015510422687|001009031000001551
REG|000138|18/10/2015|18:50:55|729251|219.80|0001230010430310000016710219807|001043031000001671
REG|000139|18/10/2015|18:54:53|729259|300.00|0001230010090310000016810549492|001009031000001681
REG|000140|18/10/2015|19:07:19|729280|254.00|0001230010520310000008640253627|001052031000000864
REG|000141|18/10/2015|19:09:51|729284|530.08|0001230010430310000016220530800|001043031000001622
REG|000142|18/10/2015|19:10:09|729286|356.00|0001230010210310000033390355609|001021031000003339
REG|000143|18/10/2015|19:12:43|729293|439.60|0001230010420310000007520219808|001042031000000752
REG|000144|18/10/2015|19:13:51|729296|549.49|0001230010020310000016650549490|001002031000001665
REG|000145|18/10/2015|19:16:10|729299|330.00|0001230010090310000018170329697|001009031000001817
REG|000146|18/10/2015|19:18:40|729302|338.00|0001230010310310000016840338159|001031031000001684
REG|000147|18/10/2015|19:23:51|729307|418.96|0001230010210310000030220418961|001021031000003022
REG|000148|18/10/2015|19:26:32|729316|538.00|0001230010030310000016930530805|001003031000001693
REG|000149|18/10/2015|19:39:45|729342|549.50|0001230010120310000012270549498|001012031000001227
REG|000150|18/10/2015|19:47:06|729364|549.49|0001230010140310000021890549495|001014031000002189
REG|000151|18/10/2015|19:53:51|729372|549.49|0001230010210310000035000549497|001021031000003500
REG|000152|18/10/2015|19:58:38|729376|418.96|0001230010500310000005660418969|001050031000000566
REG|000153|18/10/2015|20:07:00|729385|404.02|0001230010070310000006740404201|001007031000000674
REG|000154|18/10/2015|20:13:29|729399|405.00|0001230010050310000014460404207|001005031000001446
REG|000155|18/10/2015|20:31:43|729431|549.49|0001230010430310000015920549490|001043031000001592
REG|000156|18/10/2015|20:35:53|729436|426.42|0001230010420310000004930426420|001042031000000493
REG|000157|18/10/2015|20:36:39|729438|330.00|0001230010530310000002540329692|001053031000000254
REG|000158|18/10/2015|20:40:37|729441|219.80|0001230010530310000004400219807|001053031000000440
REG|000159|18/10/2015|20:41:21|729445|423.00|0001230010090310000014760422687|001009031000001476
REG|000160|18/10/2015|20:42:27|729447|549.49|0001230010420310000007890549495|001042031000000789
REG|000161|18/10/2015|20:44:02|729450|549.49|0001230010420310000007900549493|001042031000000790
REG|000162|18/10/2015|20:45:23|729451|549.49|0001230010420310000007930549497|001042031000000793
REG|000163|18/10/2015|20:48:35|729457|550.00|0001230010500310000010430549499|001050031000001043
REG|000164|18/10/2015|20:54:34|729460|464.95|0001230010520310000013870464951|001052031000001387
REG|000165|18/10/2015|21:05:36|729473|550.00|0001230010020310000016660549498|001002031000001666
REG|000166|18/10/2015|21:05:58|729474|422.68|0001230010090310000014780422683|001009031000001478
REG|000167|18/10/2015|21:10:19|729479|253.62|0001230010030310000015750253621|001003031000001575
REG|000168|18/10/2015|21:18:51|729491|219.80|0001230010430310000014860219800|001043031000001486
REG|000169|18/10/2015|21:21:58|729492|549.49|0001230010500310000010380549499|001050031000001038
REG|000170|18/10/2015|21:35:50|729500|422.68|0001230010420310000006440422682|001042031000000644
REG|000171|18/10/2015|21:45:34|729507|549.49|0001230010520310000015130549497|001052031000001513
REG|000172|18/10/2015|21:47:22|729508|169.07|0001230010110310000012710169701|001011031000001271
REG|000173|18/10/2015|21:56:34|729512|549.00|0001230010430310000015400549499|001043031000001540
REG|000174|18/10/2015|19:56:47|729513|549.49|0001230010380310000007950549490|001038031000000795
REG|000175|18/10/2015|22:39:02|729527|550.00|0001230010140310000021860549491|001014031000002186
REG|000176|18/10/2015|22:43:10|729528|771.00|0001230010500310000013470769290|001050031000001347