HDR20150803
REG|000001|03/08/2015|09:23:41|548918|586.54|0001230010430310000010700586549|001043031000001070
REG|000002|03/08/2015|09:25:18|548919|335.16|0001230010430310000010660335168|001043031000001066
REG|000003|03/08/2015|09:27:27|548921|418.96|0001230010210310000027680418960|001021031000002768
REG|000004|03/08/2015|09:29:02|548924|418.96|0001230010500310000006780418962|001050031000000678
REG|000005|03/08/2015|09:30:07|548925|418.96|0001230010500310000006800418968|001050031000000680
REG|000006|03/08/2015|09:26:21|548935|251.38|0001230010090310000013690251380|001009031000001369
REG|000007|03/08/2015|09:30:19|548936|1008.00|0001230010030310000010200167588|001003031000001020
REG|000008|03/08/2015|09:32:19|548938|251.38|0001230010420310000006010251388|001042031000000601
REG|000009|03/08/2015|09:35:37|548941|418.96|0001230010110310000007990418968|001011031000000799
REG|000010|03/08/2015|09:35:44|548942|251.38|0001230010420310000006000251380|001042031000000600
REG|000011|03/08/2015|09:36:43|548944|335.16|0001230010030310000013960335163|001003031000001396
REG|000012|03/08/2015|09:37:38|548949|418.96|0001230010420310000006040418965|001042031000000604
REG|000013|03/08/2015|09:39:33|548952|418.96|0001230010420310000005990418967|001042031000000599
REG|000014|03/08/2015|09:47:16|548953|426.42|0001230010210310000029170426420|001021031000002917
REG|000015|03/08/2015|09:52:50|548959|418.96|0001230010030310000013260418966|001003031000001326
REG|000016|03/08/2015|09:53:27|548961|255.86|0001230010210310000029160255862|001021031000002916
REG|000017|03/08/2015|09:48:21|548965|167.58|0001230010090310000011630167583|001009031000001163
REG|000018|03/08/2015|09:50:31|548968|418.96|0001230010070310000006580418964|001007031000000658
REG|000019|03/08/2015|09:52:18|548972|404.02|0001230010030310000014440404207|001003031000001444
REG|000020|03/08/2015|10:00:58|548977|335.16|0001230010470310000022150335161|001047031000002215
REG|000021|03/08/2015|09:55:20|548978|167.58|0001230010420310000006120167581|001042031000000612
REG|000022|03/08/2015|10:02:13|548980|418.96|0001230010210310000028710418962|001021031000002871
REG|000023|03/08/2015|09:55:56|548981|341.14|0001230010090310000010170341145|001009031000001017
REG|000024|03/08/2015|09:57:35|548985|167.58|0001230010420310000006160167582|001042031000000616
REG|000025|03/08/2015|09:58:18|548986|418.96|0001230010090310000013940418961|001009031000001394
REG|000026|03/08/2015|09:59:29|548987|251.38|0001230010420310000006170251384|001042031000000617
REG|000027|03/08/2015|10:00:06|548989|418.96|0001230010120310000009170418964|001012031000000917
REG|000028|03/08/2015|10:10:09|548998|251.38|0001230010500310000007270251384|001050031000000727
REG|000029|03/08/2015|10:10:14|548999|426.42|0001230010210310000025580426422|001021031000002558
REG|000030|03/08/2015|10:04:56|549003|242.42|0001230010420310000006230242423|001042031000000623
REG|000031|03/08/2015|10:12:44|549005|418.96|0001230010140310000015760418963|001014031000001576
REG|000032|03/08/2015|10:06:53|549006|242.42|0001230010420310000006290242420|001042031000000629
REG|000033|03/08/2015|10:07:30|549007|251.38|0001230010030310000013930251383|001003031000001393
REG|000034|03/08/2015|10:17:26|549011|335.16|0001230010420310000002080335169|001042031000000208
REG|000035|03/08/2015|10:18:25|549015|251.38|0001230010030310000014660251387|001003031000001466
REG|000036|03/08/2015|10:14:23|549020|418.96|0001230010030310000014690418964|001003031000001469
REG|000037|03/08/2015|10:16:00|549023|418.96|0001230010030310000014680418966|001003031000001468
REG|000038|03/08/2015|10:24:23|549029|565.62|0001230010470310000020940565626|001047031000002094
REG|000039|03/08/2015|10:18:12|549033|404.02|0001230010420310000006220404207|001042031000000622
REG|000040|03/08/2015|10:25:26|549037|251.38|0001230010210310000026160251388|001021031000002616
REG|000041|03/08/2015|10:20:22|549040|404.02|0001230010420310000006280404204|001042031000000628
REG|000042|03/08/2015|10:32:09|549051|335.16|0001230010520310000007260335169|001052031000000726
REG|000043|03/08/2015|16:16:39|550247|252.00|0001230010030310000013860251387|001003031000001386
REG|000044|03/08/2015|16:18:04|550252|481.96|0001230010060310000009840418966|001006031000000984
REG|000045|03/08/2015|16:19:25|550258|252.00|0001230010030310000013850251389|001003031000001385
REG|000046|03/08/2015|16:28:30|550264|404.02|0001230010430310000009290404204|001043031000000929
REG|000047|03/08/2015|16:23:45|550265|335.16|0001230010030310000006350335165|001003031000000635
REG|000048|03/08/2015|16:25:43|550267|419.00|0001230010050310000015080418964|001005031000001508
REG|000049|03/08/2015|16:26:02|550268|167.58|0001230010310310000014740167588|001031031000001474
REG|000050|03/08/2015|16:27:31|550275|167.58|0001230010310310000014700167586|001031031000001470
REG|000051|03/08/2015|16:35:54|550280|251.38|0001230010500310000007290251380|001050031000000729
REG|000052|03/08/2015|16:36:17|550282|418.96|0001230010470310000017140418960|001047031000001714
REG|000053|03/08/2015|16:30:52|550285|251.38|0001230010070310000005480251384|001007031000000548
REG|000054|03/08/2015|16:37:15|550286|251.38|0001230010500310000007260251386|001050031000000726
REG|000055|03/08/2015|16:37:25|550288|418.96|0001230010500310000006810418966|001050031000000681
REG|000056|03/08/2015|16:34:30|550300|418.96|0001230010310310000012680418961|001031031000001268
REG|000057|03/08/2015|16:36:23|550314|251.38|0001230010140310000015180251382|001014031000001518
REG|000058|03/08/2015|16:36:38|550316|418.96|0001230010310310000012660418965|001031031000001266
REG|000059|03/08/2015|16:44:02|550322|418.96|0001230010520310000002170418965|001052031000000217
REG|000060|03/08/2015|16:47:50|550339|586.54|0001230010210310000026150586546|001021031000002615
REG|000061|03/08/2015|16:49:37|550346|677.42|0001230010470110000001380677422|001047011000000138
REG|000062|03/08/2015|16:52:17|550353|418.96|0001230010030310000011750418967|001003031000001175
REG|000063|03/08/2015|16:54:16|550361|418.96|0001230010090310000012180418962|001009031000001218
REG|000064|03/08/2015|16:46:00|550366|251.38|0001230010020310000012210251388|001002031000001221
REG|000065|03/08/2015|16:56:40|550372|251.38|0001230010030310000010750251386|001003031000001075
REG|000066|03/08/2015|16:53:17|550390|418.00|0001230010420310000000690418961|001042031000000069
REG|000067|03/08/2015|17:01:49|550399|1129.01|0001230010210110000000461129019|001021011000000046
REG|000068|03/08/2015|17:02:17|550402|335.16|0001230010110310000009210335162|001011031000000921
REG|000069|03/08/2015|17:10:59|550437|335.16|0001230010470310000018590335167|001047031000001859
REG|000070|03/08/2015|17:17:46|550456|158.00|0001230010140310000017420167584|001014031000001742
REG|000071|03/08/2015|17:11:34|550458|418.96|0001230010050310000013160418962|001005031000001316
REG|000072|03/08/2015|17:13:40|550466|251.38|0001230010060310000006870251382|001006031000000687
REG|000073|03/08/2015|17:13:58|550467|418.96|0001230010310310000016410418969|001031031000001641
REG|000074|03/08/2015|17:14:16|550469|418.96|0001230010050310000013130418969|001005031000001313
REG|000075|03/08/2015|17:15:02|550473|418.96|0001230010310310000016390418963|001031031000001639
REG|000076|03/08/2015|17:15:29|550474|418.96|0001230010050310000013130418969|001005031000001313
REG|000077|03/08/2015|17:19:25|550490|418.96|0001230010050310000013140418967|001005031000001314
REG|000078|03/08/2015|17:20:44|550494|418.96|0001230010050310000013140418967|001005031000001314
REG|000079|03/08/2015|17:29:57|550499|500.00|0001230010210310000021280586540|001021031000002128
REG|000080|03/08/2015|17:23:27|550500|419.00|0001230010420310000005880418960|001042031000000588
REG|000081|03/08/2015|17:24:23|550502|418.96|0001230010060310000009820418960|001006031000000982
REG|000082|03/08/2015|17:32:00|550506|846.78|0001230010470110000001390846785|001047011000000139
REG|000083|03/08/2015|17:25:43|550508|251.38|0001230010060310000009830251385|001006031000000983
REG|000084|03/08/2015|16:27:10|550514|418.96|0001230010050310000013120418961|001005031000001312
REG|000085|03/08/2015|10:33:52|549058|418.96|0001230010520310000007240418960|001052031000000724
REG|000086|03/08/2015|10:34:05|549060|418.96|0001230010420310000005950418965|001042031000000595
REG|000087|03/08/2015|10:37:01|549069|251.38|0001230010520310000007110251384|001052031000000711
REG|000088|03/08/2015|10:39:07|549076|418.96|0001230010430310000010110418960|001043031000001011
REG|000089|03/08/2015|10:40:14|549079|418.96|0001230010210310000029200418967|001021031000002920
REG|000090|03/08/2015|10:40:35|549084|426.42|0001230010210310000026960426420|001021031000002696
REG|000091|03/08/2015|10:34:42|549097|341.14|0001230010090310000014260341148|001009031000001426
REG|000092|03/08/2015|10:39:49|549101|418.96|0001230010420310000006020418969|001042031000000602
REG|000093|03/08/2015|10:46:14|549104|426.42|0001230010210310000029150426424|001021031000002915
REG|000094|03/08/2015|10:40:38|549105|418.96|0001230010050310000015100418960|001005031000001510
REG|000095|03/08/2015|10:48:05|549107|867.78|0001230010030110000000480867787|001003011000000048
REG|000096|03/08/2015|10:48:16|549108|418.96|0001230010210310000028730418968|001021031000002873
REG|000097|03/08/2015|10:43:42|549112|418.96|0001230010050310000015070418966|001005031000001507
REG|000098|03/08/2015|10:47:42|549126|418.96|0001230010420310000003770418968|001042031000000377
REG|000099|03/08/2015|10:54:25|549127|167.58|0001230010040310000017160167589|001004031000001716
REG|000100|03/08/2015|10:48:41|549129|404.02|0001230010420310000006260404208|001042031000000626
REG|000101|03/08/2015|10:56:07|549132|418.96|0001230010140310000018220418961|001014031000001822
REG|000102|03/08/2015|10:50:57|549136|418.96|0001230010520310000004010418965|001052031000000401
REG|000103|03/08/2015|10:58:23|549142|251.38|0001230010470310000022200251384|001047031000002220
REG|000104|03/08/2015|10:52:35|549145|418.96|0001230010520310000003960418967|001052031000000396
REG|000105|03/08/2015|11:01:03|549153|251.38|0001230010430310000010550251384|001043031000001055
REG|000106|03/08/2015|11:01:33|549155|418.96|0001230010500310000009090418961|001050031000000909
REG|000107|03/08/2015|10:55:35|549157|404.02|0001230010420310000006180404205|001042031000000618
REG|000108|03/08/2015|11:05:03|549160|251.38|0001230010090310000013920251382|001009031000001392
REG|000109|03/08/2015|11:05:22|549162|418.96|0001230010500310000006190418966|001050031000000619
REG|000110|03/08/2015|11:06:20|549165|418.96|0001230010090310000013930418963|001009031000001393
REG|000111|03/08/2015|11:06:53|549167|418.96|0001230010500310000006180418968|001050031000000618
REG|000112|03/08/2015|11:01:51|549170|670.32|0001230010050310000013170335164|001005031000001317
REG|000113|03/08/2015|11:10:23|549174|418.96|0001230010120310000008780418968|001012031000000878
REG|000114|03/08/2015|11:07:40|549181|242.42|0001230010420310000006200242429|001042031000000620
REG|000115|03/08/2015|11:14:19|549182|404.02|0001230010500310000005990404028|001050031000000599
REG|000116|03/08/2015|11:17:53|549193|251.38|0001230010090310000013870251382|001009031000001387
REG|000117|03/08/2015|11:11:30|549194|418.96|0001230010120310000009150418968|001012031000000915
REG|000118|03/08/2015|11:18:18|549196|418.96|0001230010500310000008060418969|001050031000000806
REG|000119|03/08/2015|11:12:51|549197|418.96|0001230010120310000009180418962|001012031000000918
REG|000120|03/08/2015|11:23:07|549206|426.42|0001230010090310000014270426426|001009031000001427
REG|000121|03/08/2015|11:23:32|549207|586.54|0001230010210310000027660586547|001021031000002766
REG|000122|03/08/2015|11:24:09|549210|418.96|0001230010210310000026210418961|001021031000002621
REG|000123|03/08/2015|11:20:12|549215|418.96|0001230010050310000013370418968|001005031000001337
REG|000124|03/08/2015|11:27:46|549217|418.96|0001230010520310000007320418963|001052031000000732
REG|000125|03/08/2015|11:31:23|549230|251.38|0001230010520310000004030251388|001052031000000403
REG|000126|03/08/2015|11:32:31|549234|418.96|0001230010210310000020870418965|001021031000002087
REG|000127|03/08/2015|17:28:01|550515|335.16|0001230010420310000006080335160|001042031000000608
REG|000128|03/08/2015|17:35:23|550520|418.96|0001230010210310000026190418965|001021031000002619
REG|000129|03/08/2015|16:29:53|550522|418.96|0001230010050310000013090418967|001005031000001309
REG|000130|03/08/2015|17:37:11|550527|251.38|0001230010470310000022210251382|001047031000002221
REG|000131|03/08/2015|17:41:19|550542|167.58|0001230010500310000004590167580|001050031000000459
REG|000132|03/08/2015|17:41:24|550543|586.54|0001230010470310000021270586547|001047031000002127
REG|000133|03/08/2015|17:27:36|550552|587.00|0001230010490310000018450586541|001049031000001845
REG|000134|03/08/2015|17:43:49|550553|418.96|0001230010500310000004620418961|001050031000000462
REG|000135|03/08/2015|17:44:41|550557|418.96|0001230010470310000022400418965|001047031000002240
REG|000136|03/08/2015|17:28:56|550558|470.00|0001230010490310000018500469235|001049031000001850
REG|000137|03/08/2015|17:38:55|550559|404.02|0001230010070310000006240404024|001007031000000624
REG|000138|03/08/2015|17:30:19|550560|336.00|0001230010490310000018490335164|001049031000001849
REG|000139|03/08/2015|17:31:41|550566|420.00|0001230010490310000018480418962|001049031000001848
REG|000140|03/08/2015|17:33:05|550571|420.00|0001230010490310000018460418966|001049031000001846
REG|000141|03/08/2015|17:34:26|550578|420.00|0001230010490310000018470418964|001049031000001847
REG|000142|03/08/2015|17:50:28|550601|404.02|0001230010070310000006270404027|001007031000000627
REG|000143|03/08/2015|18:00:00|550609|426.42|0001230010210310000029130426429|001021031000002913
REG|000144|03/08/2015|17:55:06|550611|1477.21|0001230010430310000000440426429|001043031000000044
REG|000145|03/08/2015|17:54:33|550616|404.02|0001230010070310000006300404021|001007031000000630
REG|000146|03/08/2015|18:01:13|550618|418.96|0001230010420310000003580418968|001042031000000358
REG|000147|03/08/2015|18:03:27|550630|418.96|0001230010420310000003560418962|001042031000000356
REG|000148|03/08/2015|18:06:17|550635|335.16|0001230010470310000021910335164|001047031000002191
REG|000149|03/08/2015|17:02:45|550648|167.58|0001230010050310000014900167588|001005031000001490
REG|000150|03/08/2015|18:09:43|550652|418.96|0001230010500310000006770418964|001050031000000677
REG|000151|03/08/2015|18:06:59|550666|418.96|0001230010020310000011740418962|001002031000001174
REG|000152|03/08/2015|18:13:52|550667|251.38|0001230010210310000018280251380|001021031000001828
REG|000153|03/08/2015|18:14:47|550671|251.38|0001230010210310000018280251380|001021031000001828
REG|000154|03/08/2015|18:21:46|550691|341.14|0001230010500310000002010341140|001050031000000201
REG|000155|03/08/2015|18:25:12|550707|418.96|0001230010210310000028830418967|001021031000002883
REG|000156|03/08/2015|18:16:00|550708|565.62|0001230010110310000008600565628|001011031000000860
REG|000157|03/08/2015|18:20:11|550711|418.96|0001230010520310000001560418965|001052031000000156
REG|000158|03/08/2015|18:27:17|550714|682.27|0001230010210310000025750682275|001021031000002575
REG|000159|03/08/2015|18:27:54|550742|418.96|0001230010520310000002240418961|001052031000000224
REG|000160|03/08/2015|18:35:09|550748|167.58|0001230010470310000022140167583|001047031000002214
REG|000161|03/08/2015|18:28:53|550749|418.96|0001230010520310000002210418967|001052031000000221
REG|000162|03/08/2015|18:29:57|550756|418.96|0001230010520310000002230418963|001052031000000223
REG|000163|03/08/2015|18:30:44|550761|251.38|0001230010050310000015150251386|001005031000001515
REG|000164|03/08/2015|18:37:24|550763|418.96|0001230010520310000000890418968|001052031000000089
REG|000165|03/08/2015|18:31:37|550766|418.96|0001230010520310000002260418966|001052031000000226
REG|000166|03/08/2015|18:32:36|550772|418.96|0001230010520310000002220418965|001052031000000222
REG|000167|03/08/2015|18:39:14|550773|781.00|0001230010030110000000470781006|001003011000000047
REG|000168|03/08/2015|18:33:55|550774|418.96|0001230010520310000002250418968|001052031000000225
REG|000169|03/08/2015|11:34:48|549240|251.38|0001230010030310000014670251385|001003031000001467
REG|000170|03/08/2015|11:36:13|549243|251.38|0001230010030310000014700251389|001003031000001470
REG|000171|03/08/2015|11:36:29|549244|404.02|0001230010420310000005850404206|001042031000000585
REG|000172|03/08/2015|11:37:37|549245|418.96|0001230010030310000014710418960|001003031000001471
REG|000173|03/08/2015|11:32:13|549247|565.62|0001230010070310000006720565625|001007031000000672
REG|000174|03/08/2015|11:44:42|549264|418.96|0001230010210310000025660418968|001021031000002566
REG|000175|03/08/2015|11:46:11|549265|251.38|0001230010420310000004460251388|001042031000000446
REG|000176|03/08/2015|11:46:13|549266|170.57|0001230010030310000012780170578|001003031000001278
REG|000177|03/08/2015|11:46:23|549267|335.16|0001230010210310000025650335164|001021031000002565
REG|000178|03/08/2015|11:47:57|549270|418.96|0001230010210310000025640418963|001021031000002564
REG|000179|03/08/2015|10:43:01|549273|251.38|0001230010050310000014860251380|001005031000001486
REG|000180|03/08/2015|11:49:35|549274|418.96|0001230010210310000025620418967|001021031000002562
REG|000181|03/08/2015|11:50:54|549277|418.96|0001230010210310000025670418966|001021031000002567
REG|000182|03/08/2015|11:53:30|549284|418.96|0001230010430310000009850418966|001043031000000985
REG|000183|03/08/2015|11:54:00|549287|335.16|0001230010210310000027640335163|001021031000002764
REG|000184|03/08/2015|11:55:03|549292|418.96|0001230010210310000027670418962|001021031000002767
REG|000185|03/08/2015|11:48:45|549293|335.16|0001230010030310000014630335161|001003031000001463
REG|000186|03/08/2015|11:55:47|549297|418.96|0001230010430310000009840418969|001043031000000984
REG|000187|03/08/2015|12:00:32|549304|418.96|0001230010210310000023480418961|001021031000002348
REG|000188|03/08/2015|12:09:13|549329|653.57|0001230010210310000019710653575|001021031000001971
REG|000189|03/08/2015|12:02:57|549330|335.16|0001230010100310000006540335161|001010031000000654
REG|000190|03/08/2015|12:04:01|549334|251.38|0001230010100310000006550251381|001010031000000655
REG|000191|03/08/2015|12:12:53|549338|682.27|0001230010110310000008860682279|001011031000000886
REG|000192|03/08/2015|12:13:10|549339|840.00|0001230010480310000000120418968|001048031000000012
REG|000193|03/08/2015|12:15:56|549348|251.38|0001230010470310000022160251382|001047031000002216
REG|000194|03/08/2015|12:16:58|549353|335.16|0001230010210310000026230335161|001021031000002623
REG|000195|03/08/2015|12:17:33|549355|167.58|0001230010470310000022190167582|001047031000002219
REG|000196|03/08/2015|12:18:37|549358|340.00|0001230010490310000017950335169|001049031000001795
REG|000197|03/08/2015|12:20:18|549368|418.96|0001230010430310000010440418961|001043031000001044
REG|000198|03/08/2015|12:20:58|549371|255.00|0001230010490310000017970251388|001049031000001797
REG|000199|03/08/2015|12:22:09|549373|418.96|0001230010430310000010480418962|001043031000001048
REG|000200|03/08/2015|12:22:34|549375|340.00|0001230010490310000017960335167|001049031000001796
REG|000201|03/08/2015|12:24:14|549381|420.00|0001230010490310000017990418967|001049031000001799
REG|000202|03/08/2015|12:25:51|549385|340.00|0001230010490310000018000335167|001049031000001800
REG|000203|03/08/2015|12:27:40|549390|418.96|0001230010300310000016390418965|001030031000001639
REG|000204|03/08/2015|12:28:03|549392|340.00|0001230010490310000017980335163|001049031000001798
REG|000205|03/08/2015|12:28:30|549393|418.96|0001230010430310000010650418966|001043031000001065
REG|000206|03/08/2015|12:30:52|549398|251.38|0001230010030310000014600251380|001003031000001460
REG|000207|03/08/2015|12:29:45|549399|255.86|0001230010090310000013590255861|001009031000001359
REG|000208|03/08/2015|12:31:13|549406|418.96|0001230010430310000010710418964|001043031000001071
REG|000209|03/08/2015|12:32:10|549410|255.86|0001230010090310000013570255865|001009031000001357
REG|000210|03/08/2015|12:35:06|549426|426.42|0001230010090310000013610426427|001009031000001361
REG|000211|03/08/2015|18:41:25|550776|335.16|0001230010470310000022950335163|001047031000002295
REG|000212|03/08/2015|18:42:13|550777|418.96|0001230010470310000021930418966|001047031000002193
REG|000213|03/08/2015|18:43:17|550783|418.96|0001230010520310000000820418963|001052031000000082
REG|000214|03/08/2015|18:46:58|550794|418.96|0001230010500310000001950418967|001050031000000195
REG|000215|03/08/2015|18:40:54|550795|418.96|0001230010050310000015210418967|001005031000001521
REG|000216|03/08/2015|18:41:54|550801|418.96|0001230010050310000015220418965|001005031000001522
REG|000217|03/08/2015|18:43:10|550805|418.96|0001230010050310000015200418969|001005031000001520
REG|000218|03/08/2015|18:50:30|550810|335.16|0001230010500310000007720335167|001050031000000772
REG|000219|03/08/2015|17:44:35|550812|418.96|0001230010380310000006050418960|001038031000000605
REG|000220|03/08/2015|18:44:58|550815|418.96|0001230010050310000015180418963|001005031000001518
REG|000221|03/08/2015|18:51:22|550816|418.96|0001230010300310000017050418964|001030031000001705
REG|000222|03/08/2015|18:53:13|550820|167.58|0001230010500310000002420167580|001050031000000242
REG|000223|03/08/2015|18:58:18|550832|846.78|0001230010470110000001750846789|001047011000000175
REG|000224|03/08/2015|19:00:35|550840|418.96|0001230010210310000024340418969|001021031000002434
REG|000225|03/08/2015|18:54:48|550841|418.96|0001230010520310000007200418968|001052031000000720
REG|000226|03/08/2015|19:02:23|550846|251.38|0001230010210310000030310251389|001021031000003031
REG|000227|03/08/2015|18:56:03|550847|418.96|0001230010520310000007170418964|001052031000000717
REG|000228|03/08/2015|18:57:46|550855|418.96|0001230010520310000007220418964|001052031000000722
REG|000229|03/08/2015|17:57:56|550857|335.16|0001230010380310000005930335162|001038031000000593
REG|000230|03/08/2015|17:58:28|550879|500.00|0001230010050310000014810418964|001005031000001481
REG|000231|03/08/2015|19:12:46|550883|251.38|0001230010300310000017040251384|001030031000001704
REG|000232|03/08/2015|19:13:32|550885|418.96|0001230010420310000005420418967|001042031000000542
REG|000233|03/08/2015|19:07:14|550886|418.96|0001230010310310000015160418963|001031031000001516
REG|000234|03/08/2015|19:13:47|550887|418.96|0001230010210310000027340418962|001021031000002734
REG|000235|03/08/2015|18:01:10|550888|500.00|0001230010050310000014840418968|001005031000001484
REG|000236|03/08/2015|19:14:36|550890|251.38|0001230010030310000014080251389|001003031000001408
REG|000237|03/08/2015|19:08:27|550891|418.96|0001230010310310000015170418961|001031031000001517
REG|000238|03/08/2015|19:15:16|550892|251.38|0001230010030310000014050251385|001003031000001405
REG|000239|03/08/2015|19:15:21|550893|167.58|0001230010300310000017020167584|001030031000001702
REG|000240|03/08/2015|19:09:53|550896|418.96|0001230010310310000015110418964|001031031000001511
REG|000241|03/08/2015|18:10:16|550899|251.38|0001230010050310000014890251384|001005031000001489
REG|000242|03/08/2015|19:17:36|550901|418.96|0001230010500310000001160418963|001050031000000116
REG|000243|03/08/2015|19:19:11|550906|83.80|0001230010500310000001210083809|001050031000000121
REG|000244|03/08/2015|18:06:35|550908|418.96|0001230010050310000014830418960|001005031000001483
REG|000245|03/08/2015|19:20:45|550913|167.58|0001230010500310000001170167584|001050031000000117
REG|000246|03/08/2015|18:08:27|550915|251.38|0001230010050310000014800251383|001005031000001480
REG|000247|03/08/2015|19:23:12|550924|418.96|0001230010310310000015990418969|001031031000001599
REG|000248|03/08/2015|19:26:49|550931|564.05|0001230010470110000001210564055|001047011000000121
REG|000249|03/08/2015|18:13:32|550933|418.96|0001230010050310000011280418961|001005031000001128
REG|000250|03/08/2015|19:28:15|550934|418.96|0001230010500310000005750418960|001050031000000575
REG|000251|03/08/2015|19:30:08|550938|418.96|0001230010500310000005740418963|001050031000000574
REG|000252|03/08/2015|19:25:08|550941|418.96|0001230010020310000011940418960|001002031000001194
REG|000253|03/08/2015|12:36:43|549434|255.86|0001230010090310000013580255863|001009031000001358
REG|000254|03/08/2015|12:38:10|549442|255.86|0001230010090310000013600255869|001009031000001360
REG|000255|03/08/2015|12:32:16|549445|418.96|0001230010030310000012850418964|001003031000001285
REG|000256|03/08/2015|12:33:41|549447|167.58|0001230010030310000012890167589|001003031000001289
REG|000257|03/08/2015|12:40:09|549448|418.96|0001230010210310000026260418960|001021031000002626
REG|000258|03/08/2015|12:35:13|549455|418.96|0001230010030310000012860418962|001003031000001286
REG|000259|03/08/2015|12:36:38|549458|251.38|0001230010030310000012880251385|001003031000001288
REG|000260|03/08/2015|12:40:55|549469|418.96|0001230010050310000010730418969|001005031000001073
REG|000261|03/08/2015|12:45:08|549482|418.96|0001230010120310000009460418963|001012031000000946
REG|000262|03/08/2015|12:47:04|549492|418.96|0001230010520310000003180418961|001052031000000318
REG|000263|03/08/2015|12:48:02|549496|418.96|0001230010520310000003140418960|001052031000000314
REG|000264|03/08/2015|12:55:40|549498|251.38|0001230010030310000014040251388|001003031000001404
REG|000265|03/08/2015|12:50:31|549500|418.96|0001230010520310000003160418965|001052031000000316
REG|000266|03/08/2015|12:57:25|549504|251.38|0001230010030310000014070251381|001003031000001407
REG|000267|03/08/2015|10:52:19|549506|426.42|0001230010380310000006330426429|001038031000000633
REG|000268|03/08/2015|10:54:26|549511|426.42|0001230010380310000006330426429|001038031000000633
REG|000269|03/08/2015|13:00:52|549512|167.58|0001230010520310000007270167586|001052031000000727
REG|000270|03/08/2015|13:01:34|549513|418.96|0001230010210310000025040418969|001021031000002504
REG|000271|03/08/2015|13:02:14|549514|418.96|0001230010520310000007310418965|001052031000000731
REG|000272|03/08/2015|13:02:49|549516|418.96|0001230010030310000010760418967|001003031000001076
REG|000273|03/08/2015|13:03:01|549517|251.38|0001230010470310000021950251388|001047031000002195
REG|000274|03/08/2015|13:03:21|549518|418.96|0001230010520310000007280418961|001052031000000728
REG|000275|03/08/2015|13:04:29|549522|418.96|0001230010520310000007290418969|001052031000000729
REG|000276|03/08/2015|13:07:15|549537|586.54|0001230010310310000014590586549|001031031000001459
REG|000277|03/08/2015|13:18:12|549548|418.96|0001230010500310000008940418965|001050031000000894
REG|000278|03/08/2015|13:24:43|549566|434.00|0001230010030110000000460433881|001003011000000046
REG|000279|03/08/2015|13:28:11|549576|167.58|0001230010430310000010330167587|001043031000001033
REG|000280|03/08/2015|13:29:37|549578|167.58|0001230010420310000004430167581|001042031000000443
REG|000281|03/08/2015|13:23:18|549579|404.02|0001230010030310000014430404209|001003031000001443
REG|000282|03/08/2015|13:24:11|549584|335.16|0001230010420310000005870335166|001042031000000587
REG|000283|03/08/2015|13:25:08|549587|404.02|0001230010030310000014460404202|001003031000001446
REG|000284|03/08/2015|13:31:35|549589|418.96|0001230010500310000008550418966|001050031000000855
REG|000285|03/08/2015|13:26:25|549594|404.02|0001230010030310000014510404202|001003031000001451
REG|000286|03/08/2015|13:32:52|549596|418.96|0001230010500310000008560418964|001050031000000856
REG|000287|03/08/2015|13:33:44|549601|167.58|0001230010470310000022410167586|001047031000002241
REG|000288|03/08/2015|13:28:00|549602|404.02|0001230010030310000014470404200|001003031000001447
REG|000289|03/08/2015|13:30:31|549612|282.81|0001230010030310000014450282816|001003031000001445
REG|000290|03/08/2015|13:30:58|549615|251.38|0001230010090310000014360251387|001009031000001436
REG|000291|03/08/2015|13:30:59|549616|418.96|0001230010030310000013910418960|001003031000001391
REG|000292|03/08/2015|13:33:08|549623|335.16|0001230010090310000014370335162|001009031000001437
REG|000293|03/08/2015|13:33:28|549625|242.42|0001230010030310000014480242426|001003031000001448
REG|000294|03/08/2015|13:40:06|549627|418.96|0001230010430310000010450418968|001043031000001045
REG|000295|03/08/2015|19:32:29|550952|418.96|0001230010500310000007300418961|001050031000000730
REG|000296|03/08/2015|19:26:48|550954|418.96|0001230010020310000011660418968|001002031000001166
REG|000297|03/08/2015|19:27:01|550955|408.00|0001230010030310000013530404200|001003031000001353
REG|000298|03/08/2015|19:24:54|550959|800.00|0001230010220310000011980418969|001022031000001198
REG|000299|03/08/2015|19:29:11|550962|408.00|0001230010030310000013580404209|001003031000001358
REG|000300|03/08/2015|19:30:38|550972|408.00|0001230010030310000013570404201|001003031000001357
REG|000301|03/08/2015|19:32:09|550979|408.00|0001230010030310000013520404202|001003031000001352
REG|000302|03/08/2015|19:35:29|551000|408.00|0001230010030310000013540404208|001003031000001354
REG|000303|03/08/2015|19:43:25|551009|418.96|0001230010460310000009190418968|001046031000000919
REG|000304|03/08/2015|17:38:02|551014|586.54|0001230010380310000006180586546|001038031000000618
REG|000305|03/08/2015|19:38:02|551015|418.96|0001230010310310000014570418960|001031031000001457
REG|000306|03/08/2015|19:39:18|551020|335.16|0001230010520310000007350335160|001052031000000735
REG|000307|03/08/2015|19:39:28|551021|586.54|0001230010310310000014610586545|001031031000001461
REG|000308|03/08/2015|19:40:51|551027|418.96|0001230010520310000007370418962|001052031000000737
REG|000309|03/08/2015|19:41:09|551028|418.96|0001230010310310000014630418968|001031031000001463
REG|000310|03/08/2015|19:41:24|551030|565.62|0001230010070310000006710565627|001007031000000671
REG|000311|03/08/2015|19:41:57|551034|418.96|0001230010520310000007380418960|001052031000000738
REG|000312|03/08/2015|18:42:44|551037|170.57|0001230010370310000009750170578|001037031000000975
REG|000313|03/08/2015|19:43:28|551040|418.96|0001230010520310000007330418961|001052031000000733
REG|000314|03/08/2015|18:44:53|551043|85.29|0001230010370310000009760085295|001037031000000976
REG|000315|03/08/2015|19:45:41|551049|418.96|0001230010520310000007360418964|001052031000000736
REG|000316|03/08/2015|19:46:41|551055|251.38|0001230010310310000014750251389|001031031000001475
REG|000317|03/08/2015|19:58:23|551075|167.58|0001230010300310000018320167589|001030031000001832
REG|000318|03/08/2015|19:59:45|551083|341.14|0001230010500310000004320341141|001050031000000432
REG|000319|03/08/2015|20:00:08|551086|200.00|0001230010030310000000420416923|001003031000000042
REG|000320|03/08/2015|20:00:27|551089|418.96|0001230010310310000016240418965|001031031000001624
REG|000321|03/08/2015|20:00:58|551092|167.58|0001230010420310000003800167585|001042031000000380
REG|000322|03/08/2015|19:55:03|551093|418.96|0001230010090310000009740418961|001009031000000974
REG|000323|03/08/2015|20:01:41|551095|170.57|0001230010500310000004290170579|001050031000000429
REG|000324|03/08/2015|20:02:05|551097|251.38|0001230010480310000001060251385|001048031000000106
REG|000325|03/08/2015|18:58:00|551105|85.29|0001230010370310000010630085291|001037031000001063
REG|000326|03/08/2015|20:11:20|551119|251.38|0001230010470310000021960251386|001047031000002196
REG|000327|03/08/2015|18:08:00|551129|5.00|0001230010370310000010020167584|001037031000001002
REG|000328|03/08/2015|20:11:02|551142|502.74|0001230010300310000014650502743|001030031000001465
REG|000329|03/08/2015|20:20:16|551151|959.68|0001230010210110000000730959683|001021011000000073
REG|000330|03/08/2015|20:25:47|551166|340.00|0001230010490310000008370335160|001049031000000837
REG|000331|03/08/2015|20:28:26|551174|425.00|0001230010490310000008400418960|001049031000000840
REG|000332|03/08/2015|20:22:27|551175|418.96|0001230010050310000013620418966|001005031000001362
REG|000333|03/08/2015|20:35:01|551193|425.00|0001230010490310000008380418964|001049031000000838
REG|000334|03/08/2015|20:37:38|551207|340.00|0001230010490310000008420335160|001049031000000842
REG|000335|03/08/2015|20:31:54|551212|418.96|0001230010220310000011600418969|001022031000001160
REG|000336|03/08/2015|20:39:10|551217|425.00|0001230010490310000008410418968|001049031000000841
REG|000337|03/08/2015|13:33:59|549628|419.00|0001230010420310000005920418962|001042031000000592
REG|000338|03/08/2015|13:35:16|549636|404.02|0001230010030310000014490404206|001003031000001449
REG|000339|03/08/2015|13:42:43|549641|418.96|0001230010430310000010430418963|001043031000001043
REG|000340|03/08/2015|13:37:38|549645|167.58|0001230010090310000011650167588|001009031000001165
REG|000341|03/08/2015|13:37:58|549647|242.42|0001230010030310000014500242422|001003031000001450
REG|000342|03/08/2015|13:44:33|549649|418.96|0001230010420310000003700418963|001042031000000370
REG|000343|03/08/2015|13:45:41|549654|418.96|0001230010420310000002810418962|001042031000000281
REG|000344|03/08/2015|13:45:53|549655|418.96|0001230010500310000006280418967|001050031000000628
REG|000345|03/08/2015|13:47:07|549659|418.96|0001230010420310000002800418964|001042031000000280
REG|000346|03/08/2015|13:47:11|549660|251.38|0001230010470310000022910251385|001047031000002291
REG|000347|03/08/2015|13:47:15|549661|418.96|0001230010420310000005450418960|001042031000000545
REG|000348|03/08/2015|13:47:58|549665|418.96|0001230010500310000006250418963|001050031000000625
REG|000349|03/08/2015|13:48:28|549666|418.96|0001230010470310000022870418966|001047031000002287
REG|000350|03/08/2015|13:48:43|549667|418.96|0001230010420310000005470418966|001042031000000547
REG|000351|03/08/2015|13:42:31|549669|418.96|0001230010030310000012520418964|001003031000001252
REG|000352|03/08/2015|13:49:37|549672|251.38|0001230010470310000022890251389|001047031000002289
REG|000353|03/08/2015|13:50:10|549674|418.96|0001230010210310000028700418964|001021031000002870
REG|000354|03/08/2015|13:50:49|549675|323.21|0001230010420310000005830323211|001042031000000583
REG|000355|03/08/2015|13:50:52|549676|418.96|0001230010420310000005460418968|001042031000000546
REG|000356|03/08/2015|13:51:23|549679|418.96|0001230010210310000028690418966|001021031000002869
REG|000357|03/08/2015|13:51:45|549680|251.38|0001230010140310000014970251389|001014031000001497
REG|000358|03/08/2015|13:52:26|549684|418.96|0001230010470310000022920418966|001047031000002292
REG|000359|03/08/2015|13:52:53|549686|418.96|0001230010420310000005190418965|001042031000000519
REG|000360|03/08/2015|13:53:06|549687|418.96|0001230010420310000005430418965|001042031000000543
REG|000361|03/08/2015|13:46:59|549689|418.96|0001230010110310000008780418960|001011031000000878
REG|000362|03/08/2015|13:47:27|549691|251.38|0001230010040310000006740251385|001004031000000674
REG|000363|03/08/2015|12:48:16|549693|418.96|0001230010050310000015130418964|001005031000001513
REG|000364|03/08/2015|13:54:52|549694|418.96|0001230010420310000005440418963|001042031000000544
REG|000365|03/08/2015|13:56:47|549701|251.38|0001230010520310000007130251380|001052031000000713
REG|000366|03/08/2015|13:59:15|549708|418.96|0001230010430310000010470418964|001043031000001047
REG|000367|03/08/2015|13:59:28|549709|404.02|0001230010430310000009210404201|001043031000000921
REG|000368|03/08/2015|13:59:44|549711|418.96|0001230010520310000007150418968|001052031000000715
REG|000369|03/08/2015|14:00:33|549714|335.16|0001230010420310000002540335163|001042031000000254
REG|000370|03/08/2015|14:01:01|549716|418.96|0001230010520310000007140418961|001052031000000714
REG|000371|03/08/2015|14:01:04|549717|418.96|0001230010480310000000650418966|001048031000000065
REG|000372|03/08/2015|14:02:13|549724|418.96|0001230010420310000002560418964|001042031000000256
REG|000373|03/08/2015|14:05:29|549730|251.38|0001230010210310000030320251387|001021031000003032
REG|000374|03/08/2015|14:05:52|549732|418.96|0001230010020310000012260418960|001002031000001226
REG|000375|03/08/2015|14:06:50|549736|251.38|0001230010210310000030340025183|001021031000003034
REG|000376|03/08/2015|14:01:47|549740|209.48|0001230010030310000012380209487|001003031000001238
REG|000377|03/08/2015|14:05:24|549751|167.58|0001230010430310000010060167583|001043031000001006
REG|000378|03/08/2015|14:15:42|549771|418.96|0001230010310310000015130418960|001031031000001513
REG|000379|03/08/2015|13:11:01|549777|418.96|0001230010050310000013100418965|001005031000001310
REG|000380|03/08/2015|13:12:00|549781|418.96|0001230010050310000013080418969|001005031000001308
REG|000381|03/08/2015|14:20:22|549788|418.96|0001230010090310000012200418968|001009031000001220
REG|000382|03/08/2015|14:14:32|549789|418.96|0001230010030310000011210418961|001003031000001121
REG|000383|03/08/2015|14:21:03|549791|335.16|0001230010030310000014560335165|001003031000001456
REG|000384|03/08/2015|14:23:21|549803|335.16|0001230010500310000004740335160|001050031000000474
REG|000385|03/08/2015|14:24:04|549805|242.42|0001230010420310000005810242423|001042031000000581
REG|000386|03/08/2015|14:18:07|549807|418.96|0001230010030310000011260418960|001003031000001126
REG|000387|03/08/2015|14:18:48|549810|418.96|0001230010030310000014060418966|001003031000001406
REG|000388|03/08/2015|14:26:44|549815|323.21|0001230010420310000005820323213|001042031000000582
REG|000389|03/08/2015|14:20:23|549816|418.96|0001230010030310000014650418962|001003031000001465
REG|000390|03/08/2015|14:28:59|549826|418.96|0001230010430310000010490418960|001043031000001049
REG|000391|03/08/2015|14:27:06|549840|335.16|0001230010030310000014640335169|001003031000001464
REG|000392|03/08/2015|14:37:09|549856|440.96|0001230010500310000001430418967|001050031000000143
REG|000393|03/08/2015|14:38:08|549858|586.54|0001230010210310000026130586541|001021031000002613
REG|000394|03/08/2015|14:38:29|549860|167.58|0001230010420310000004420167583|001042031000000442
REG|000395|03/08/2015|14:39:03|549861|440.96|0001230010500310000001410418961|001050031000000141
REG|000396|03/08/2015|14:40:11|549863|418.96|0001230010210310000026120418960|001021031000002612
REG|000397|03/08/2015|14:40:20|549864|335.16|0001230010470310000021410335169|001047031000002141
REG|000398|03/08/2015|14:42:41|549875|418.96|0001230010210310000026110418962|001021031000002611
REG|000399|03/08/2015|14:42:57|549878|404.02|0001230010430310000009270404208|001043031000000927
REG|000400|03/08/2015|14:45:38|549888|404.02|0001230010430310000009220404209|001043031000000922
REG|000401|03/08/2015|14:46:26|549893|418.96|0001230010120310000008840418966|001012031000000884
REG|000402|03/08/2015|14:46:44|549894|335.16|0001230010500310000008490335163|001050031000000849
REG|000403|03/08/2015|14:48:39|549899|418.96|0001230010500310000008530418961|001050031000000853
REG|000404|03/08/2015|14:48:42|549900|170.57|0001230010430310000008690170571|001043031000000869
REG|000405|03/08/2015|14:43:46|549905|251.38|0001230010420310000000150251381|001042031000000015
REG|000406|03/08/2015|14:50:20|549906|170.57|0001230010430310000008680170573|001043031000000868
REG|000407|03/08/2015|14:51:54|549911|170.57|0001230010430310000008710170577|001043031000000871
REG|000408|03/08/2015|14:53:00|549916|404.02|0001230010430310000009230404207|001043031000000923
REG|000409|03/08/2015|14:54:35|549934|418.96|0001230010520310000007300418967|001052031000000730
REG|000410|03/08/2015|15:01:17|549937|419.00|0001230010140310000018430418967|001014031000001843
REG|000411|03/08/2015|14:58:16|549954|251.38|0001230010310310000014730251384|001031031000001473
REG|000412|03/08/2015|15:06:53|549963|418.96|0001230010210310000026840418969|001021031000002684
REG|000413|03/08/2015|15:08:17|549966|418.96|0001230010210310000026870418962|001021031000002687
REG|000414|03/08/2015|15:09:49|549971|167.58|0001230010030310000010780167586|001003031000001078
REG|000415|03/08/2015|15:18:01|549990|433.88|0001230010140110000000100433884|001014011000000010
REG|000416|03/08/2015|15:19:33|549999|433.88|0001230010140110000000100433884|001014011000000010
REG|000417|03/08/2015|15:14:00|550001|418.96|0001230010310310000016420418967|001031031000001642
REG|000418|03/08/2015|15:14:45|550004|251.38|0001230010090310000014340251382|001009031000001434
REG|000419|03/08/2015|15:15:43|550006|418.96|0001230010310310000016430418965|001031031000001643
REG|000420|03/08/2015|15:16:06|550008|251.38|0001230010090310000014390251381|001009031000001439
REG|000421|03/08/2015|15:16:57|550011|404.02|0001230010070310000006750404208|001007031000000675
REG|000422|03/08/2015|15:27:42|550024|418.96|0001230010520310000003190418969|001052031000000319
REG|000423|03/08/2015|15:28:37|550030|426.42|0001230010490310000014210426425|001049031000001421
REG|000424|03/08/2015|15:29:23|550031|418.96|0001230010430310000005310418968|001043031000000531
REG|000425|03/08/2015|15:30:07|550033|341.14|0001230010490310000014220341143|001049031000001422
REG|000426|03/08/2015|15:34:13|550045|200.00|0001230010500310000002540200006|001050031000000254
REG|000427|03/08/2015|15:36:01|550051|418.96|0001230010500310000001680418964|001050031000000168
REG|000428|03/08/2015|15:30:26|550052|293.26|0001230010030310000006550293263|001003031000000655
REG|000429|03/08/2015|13:31:19|550056|167.58|0001230010380310000006030167588|001038031000000603
REG|000430|03/08/2015|13:32:46|550059|586.54|0001230010380310000005980586540|001038031000000598
REG|000431|03/08/2015|13:34:06|550063|251.38|0001230010380310000006010251386|001038031000000601
REG|000432|03/08/2015|15:41:00|550064|418.96|0001230010030310000006340418964|001003031000000634
REG|000433|03/08/2015|15:36:11|550070|335.16|0001230010020310000010980335167|001002031000001098
REG|000434|03/08/2015|15:42:38|550071|167.58|0001230010420310000004400167587|001042031000000440
REG|000435|03/08/2015|15:45:32|550079|335.16|0001230010470310000021920335162|001047031000002192
REG|000436|03/08/2015|15:45:43|550080|418.96|0001230010480310000001190418961|001048031000000119
REG|000437|03/08/2015|15:38:02|550088|336.00|0001230010460310000008980335168|001046031000000898
REG|000438|03/08/2015|15:49:32|550098|418.96|0001230010480310000001210418967|001048031000000121
REG|000439|03/08/2015|15:51:31|550105|242.42|0001230010420310000005770242421|001042031000000577
REG|000440|03/08/2015|15:52:09|550106|418.96|0001230010480310000001250418968|001048031000000125
REG|000441|03/08/2015|15:52:18|550107|167.58|0001230010430310000006600167588|001043031000000660
REG|000442|03/08/2015|15:47:00|550111|335.16|0001230010020310000010960335161|001002031000001096
REG|000443|03/08/2015|15:53:49|550112|418.96|0001230010480310000001200418969|001048031000000120
REG|000444|03/08/2015|15:53:51|550113|323.21|0001230010420310000005860323214|001042031000000586
REG|000445|03/08/2015|15:44:30|550116|419.00|0001230010460310000009020418964|001046031000000902
REG|000446|03/08/2015|15:54:15|550118|251.38|0001230010430310000006590251384|001043031000000659
REG|000447|03/08/2015|15:54:17|550119|418.96|0001230010210310000026180418967|001021031000002618
REG|000448|03/08/2015|15:45:51|550122|336.00|0001230010460310000009010335160|001046031000000901
REG|000449|03/08/2015|15:55:47|550123|404.02|0001230010420310000005780404201|001042031000000578
REG|000450|03/08/2015|15:57:17|550127|470.00|0001230010060310000006100418967|001006031000000610
REG|000451|03/08/2015|15:57:38|550128|404.02|0001230010420310000005760404205|001042031000000576
REG|000452|03/08/2015|15:48:22|550129|168.00|0001230010460310000008970167589|001046031000000897
REG|000453|03/08/2015|15:58:41|550131|335.16|0001230010470310000022930335168|001047031000002293
REG|000454|03/08/2015|15:59:25|550138|426.42|0001230010490310000017060426429|001049031000001706
REG|000455|03/08/2015|16:00:19|550143|426.42|0001230010030310000012770426428|001003031000001277
REG|000456|03/08/2015|15:53:58|550145|418.96|0001230010050310000013320418969|001005031000001332
REG|000457|03/08/2015|16:00:54|550148|418.96|0001230010500310000007250418961|001050031000000725
REG|000458|03/08/2015|16:01:33|550151|255.86|0001230010030310000012750255862|001003031000001275
REG|000459|03/08/2015|16:01:53|550152|426.42|0001230010490310000017040426424|001049031000001704
REG|000460|03/08/2015|16:02:32|550154|255.86|0001230010030310000012760255860|001003031000001276
REG|000461|03/08/2015|16:03:01|550156|335.16|0001230010470310000022940335166|001047031000002294
REG|000462|03/08/2015|16:04:29|550169|255.86|0001230010490310000017050255861|001049031000001705
REG|000463|03/08/2015|08:14:03|548842|565.62|0001230010210310000027420565625|001021031000002742
REG|000464|03/08/2015|08:15:09|548845|225.00|0001230010520310000001260418968|001052031000000126
REG|000465|03/08/2015|08:31:25|548855|846.78|0001230010470110000001360846781|001047011000000136
REG|000466|03/08/2015|08:25:22|548856|255.86|0001230010420310000001590255867|001042031000000159
REG|000467|03/08/2015|08:34:51|548859|251.38|0001230010470310000022170251380|001047031000002217
REG|000468|03/08/2015|08:35:46|548861|251.38|0001230010500310000009100251386|001050031000000910
REG|000469|03/08/2015|08:37:33|548863|335.16|0001230010470310000022180335165|001047031000002218
REG|000470|03/08/2015|08:32:16|548867|251.38|0001230010090310000013900251386|001009031000001390
REG|000471|03/08/2015|08:33:53|548869|418.96|0001230010090310000013910418967|001009031000001391
REG|000472|03/08/2015|08:41:09|548872|419.00|0001230010040310000017780418966|001004031000001778
REG|000473|03/08/2015|08:39:29|548877|418.96|0001230010070310000005510418961|001007031000000551
REG|000474|03/08/2015|08:41:51|548878|255.86|0001230010090310000014230255865|001009031000001423
REG|000475|03/08/2015|08:42:26|548879|404.02|0001230010420310000006270404206|001042031000000627
REG|000476|03/08/2015|08:49:55|548881|335.16|0001230010420310000005930335164|001042031000000593
REG|000477|03/08/2015|08:52:06|548883|251.38|0001230010420310000005980251386|001042031000000598
REG|000478|03/08/2015|08:56:05|548884|418.96|0001230010210310000026220418969|001021031000002622
REG|000479|03/08/2015|08:57:04|548885|418.96|0001230010140310000015750418965|001014031000001575
REG|000480|03/08/2015|08:58:48|548887|586.54|0001230010210310000027690586541|001021031000002769
REG|000481|03/08/2015|09:02:52|548889|256.00|0001230010140310000007810255867|001014031000000781
REG|000482|03/08/2015|09:05:42|548893|342.00|0001230010140310000007830341143|001014031000000783
REG|000483|03/08/2015|09:07:01|548895|171.00|0001230010140310000007820170577|001014031000000782
REG|000484|03/08/2015|09:00:42|548896|416.96|0001230010460310000009000418968|001046031000000900
REG|000485|03/08/2015|09:08:10|548898|171.00|0001230010140310000007840170573|001014031000000784
REG|000486|03/08/2015|09:02:17|548899|418.96|0001230010520310000007190418960|001052031000000719
REG|000487|03/08/2015|09:02:26|548900|418.96|0001230010460310000008990418962|001046031000000899
REG|000488|03/08/2015|09:12:58|548902|167.58|0001230010420310000005940167581|001042031000000594
REG|000489|03/08/2015|09:08:45|548904|251.38|0001230010030310000013950251388|001003031000001395
REG|000490|03/08/2015|09:16:00|548906|418.96|0001230010420310000005720418964|001042031000000572
REG|000491|03/08/2015|09:11:10|548910|167.58|0001230010030310000013920167581|001003031000001392
REG|000492|03/08/2015|09:19:22|548913|167.58|0001230010420310000004440167589|001042031000000444
REG|000493|03/08/2015|09:21:28|548914|586.54|0001230010430310000010670586545|001043031000001067
REG|000494|03/08/2015|20:33:00|551218|418.96|0001230010220310000011590418961|001022031000001159
REG|000495|03/08/2015|19:34:14|551224|83.80|0001230010050310000014880083805|001005031000001488
REG|000496|03/08/2015|20:40:58|551225|425.00|0001230010490310000014430418962|001049031000001443
REG|000497|03/08/2015|20:42:47|551232|340.00|0001230010490310000008390335166|001049031000000839
REG|000498|03/08/2015|20:37:18|551234|418.96|0001230010220310000011610418967|001022031000001161
REG|000499|03/08/2015|19:37:20|551236|251.38|0001230010050310000014910251380|001005031000001491
REG|000500|03/08/2015|20:38:02|551241|418.96|0001230010220310000011620418965|001022031000001162
REG|000501|03/08/2015|20:39:03|551246|418.96|0001230010220310000011630418963|001022031000001163
REG|000502|03/08/2015|19:39:05|551247|418.96|0001230010050310000014870418961|001005031000001487
REG|000503|03/08/2015|20:46:22|551249|418.96|0001230010210310000026100418964|001021031000002610
REG|000504|03/08/2015|20:40:06|551250|418.96|0001230010220310000011640418961|001022031000001164
REG|000505|03/08/2015|20:48:15|551257|586.54|0001230010210310000026140586549|001021031000002614
REG|000506|03/08/2015|21:00:15|551280|404.02|0001230010030310000013590404207|001003031000001359
REG|000507|03/08/2015|21:02:14|551286|282.81|0001230010030310000013560282815|001003031000001356
REG|000508|03/08/2015|20:57:26|551292|293.26|0001230010030310000013340293264|001003031000001334
REG|000509|03/08/2015|21:05:36|551297|251.38|0001230010430310000006640251384|001043031000000664
REG|000510|03/08/2015|21:03:10|551304|418.96|0001230010090310000011910418961|001009031000001191
REG|000511|03/08/2015|21:03:47|551306|418.96|0001230010310310000014580418968|001031031000001458
REG|000512|03/08/2015|21:07:45|551318|418.96|0001230010520310000003170418963|001052031000000317
REG|000513|03/08/2015|21:14:35|551320|418.96|0001230010210310000020170418962|001021031000002017
REG|000514|03/08/2015|21:08:54|551321|418.96|0001230010520310000003130418962|001052031000000313
REG|000515|03/08/2015|21:10:11|551323|418.96|0001230010520310000003150418967|001052031000000315
REG|000516|03/08/2015|21:16:45|551324|418.96|0001230010210310000020170418962|001021031000002017
REG|000517|03/08/2015|21:11:26|551329|251.38|0001230010030310000014140251387|001003031000001414
REG|000518|03/08/2015|21:23:45|551340|418.96|0001230010160310000010770418967|001016031000001077
REG|000519|03/08/2015|19:19:48|551344|502.74|0001230010380310000005970502747|001038031000000597
REG|000520|03/08/2015|21:38:51|551374|418.96|0001230010030310000013020418967|001003031000001302
REG|000521|03/08/2015|21:39:32|551377|419.00|0001230010500310000002910418964|001050031000000291
REG|000522|03/08/2015|21:42:53|551383|251.38|0001230010520310000007160251383|001052031000000716
REG|000523|03/08/2015|21:37:29|551385|251.38|0001230010050310000013860251382|001005031000001386
REG|000524|03/08/2015|21:44:56|551388|418.96|0001230010520310000003100418968|001052031000000310
REG|000525|03/08/2015|21:39:17|551389|251.38|0001230010050310000013860251382|001005031000001386
REG|000526|03/08/2015|21:47:04|551395|418.96|0001230010520310000003110418966|001052031000000311
REG|000527|03/08/2015|21:41:53|551399|251.38|0001230010050310000013860251382|001005031000001386
REG|000528|03/08/2015|21:44:46|551405|419.00|0001230010030310000013900418962|001003031000001390
REG|000529|03/08/2015|21:46:19|551408|419.00|0001230010030310000013890418964|001003031000001389
REG|000530|03/08/2015|22:13:29|551436|418.96|0001230010520310000000850418966|001052031000000085
REG|000531|03/08/2015|22:15:23|551437|418.96|0001230010520310000000830418961|001052031000000083
REG|000532|03/08/2015|22:38:51|551456|335.16|0001230010470310000022960335161|001047031000002296
REG|000533|03/08/2015|22:48:31|551459|418.96|0001230010520310000000840418969|001052031000000084
REG|000534|03/08/2015|22:46:08|551460|586.54|0001230010050310000012250586548|001005031000001225
REG|000535|03/08/2015|15:59:33|550171|252.00|0001230010030310000014550251380|001003031000001455
REG|000536|03/08/2015|16:06:25|550174|255.86|0001230010490310000017030255866|001049031000001703
REG|000537|03/08/2015|16:01:01|550178|252.00|0001230010030310000014570251386|001003031000001457
REG|000538|03/08/2015|16:01:54|550181|418.96|0001230010070310000006590418962|001007031000000659
REG|000539|03/08/2015|16:08:28|550182|404.02|0001230010500310000007380404204|001050031000000738
REG|000540|03/08/2015|16:02:20|550183|419.00|0001230010030310000014540418966|001003031000001454
REG|000541|03/08/2015|16:09:56|550190|404.02|0001230010500310000007310404209|001050031000000731
REG|000542|03/08/2015|16:04:18|550196|252.00|0001230010030310000014580251384|001003031000001458
REG|000543|03/08/2015|16:05:37|550201|419.00|0001230010030310000014530418968|001003031000001453
REG|000544|03/08/2015|16:05:54|550203|418.96|0001230010070310000006570418966|001007031000000657
REG|000545|03/08/2015|16:05:57|550204|418.96|0001230010050310000012330418969|001005031000001233
REG|000546|03/08/2015|16:07:19|550207|210.00|0001230010030310000014590209489|001003031000001459
REG|000547|03/08/2015|16:07:31|550208|426.42|0001230010070310000006510426426|001007031000000651
REG|000548|03/08/2015|16:14:31|550211|404.02|0001230010500310000007360404208|001050031000000736
REG|000549|03/08/2015|16:17:54|550227|242.42|0001230010030310000014420242429|001003031000001442
REG|000550|03/08/2015|16:12:16|550231|418.96|0001230010050310000013330418967|001005031000001333
REG|000551|03/08/2015|16:13:38|550238|418.96|0001230010050310000013350418962|001005031000001335
REG|000552|03/08/2015|16:21:12|550240|418.96|0001230010030310000010740418962|001003031000001074
REG|000553|03/08/2015|16:15:13|550242|418.96|0001230010110310000010090418961|001011031000001009
TLR0005530000208010.09