REG|000001|15/11/2015|09:15:34|814512|329.69|0001230010120310000016290329690|001012031000001629
REG|000002|15/11/2015|09:23:18|814524|447.36|0001230010460310000013910447364|001046031000001391
REG|000003|15/11/2015|09:28:50|814528|473.17|0001230010430310000013940473171|001043031000001394
REG|000004|15/11/2015|09:30:38|814531|309.71|0001230010430310000013910309710|001043031000001391
REG|000005|15/11/2015|09:52:38|814553|423.00|0001230010090310000014780422683|001009031000001478
REG|000006|15/11/2015|10:10:40|814581|549.49|0001230010020310000018550549497|001002031000001855
REG|000007|15/11/2015|10:17:57|814596|769.29|0001230010500310000013850769290|001050031000001385
REG|000008|15/11/2015|10:29:58|814614|338.15|0001230010090310000015800338155|001009031000001580
REG|000009|15/11/2015|10:30:12|814616|769.77|0001230010500310000016390769779|001050031000001639
REG|000010|15/11/2015|10:41:04|814630|769.29|0001230010210310000034950769296|001021031000003495
REG|000011|15/11/2015|10:42:23|814632|15.00|0001230010300310000018240251380|001030031000001824
REG|000012|15/11/2015|10:42:48|814633|329.69|0001230010210310000034940329698|001021031000003494
REG|000013|15/11/2015|10:55:40|814661|549.49|0001230010300310000021720549497|001030031000002172
REG|000014|15/11/2015|10:58:28|814666|549.99|0001230010050310000020540549499|001005031000002054
REG|000015|15/11/2015|11:00:42|814669|439.59|0001230010420310000007200439593|001042031000000720
REG|000016|15/11/2015|11:01:33|814672|439.59|0001230010090310000018140439592|001009031000001814
REG|000017|15/11/2015|11:05:06|814684|219.80|0001230010430310000017930219809|001043031000001793
REG|000018|15/11/2015|11:42:58|814760|219.80|0001230010520310000011560219800|001052031000001156
REG|000019|15/11/2015|11:42:37|814761|560.00|0001230010020310000020450559204|001002031000002045
REG|000020|15/11/2015|11:44:06|814763|439.59|0001230010520310000011610439598|001052031000001161
REG|000021|15/11/2015|11:45:52|814768|440.00|0001230010460310000013860439593|001046031000001386
REG|000022|15/11/2015|11:47:46|814771|330.00|0001230010420310000007790329691|001042031000000779
REG|000023|15/11/2015|11:52:08|814784|329.69|0001230010310310000020370329695|001031031000002037
REG|000024|15/11/2015|11:59:10|814802|262.06|0001230010110310000012690262609|001011031000001269
REG|000025|15/11/2015|12:07:46|814810|249.49|0001230010030310000019620249496|001003031000001962
REG|000026|15/11/2015|12:12:48|814827|550.00|0001230010460310000013630549499|001046031000001363
REG|000027|15/11/2015|12:15:43|814835|549.49|0001230010430310000018000549497|001043031000001800
REG|000028|15/11/2015|11:16:17|814836|439.59|0001230010050310000017930439596|001005031000001793
REG|000029|15/11/2015|12:21:41|814856|770.00|0001230010500310000014330769298|001050031000001433
REG|000030|15/11/2015|12:24:25|814860|769.77|0001230010140310000024080769774|001014031000002408
REG|000031|15/11/2015|12:25:46|814862|769.77|0001230010140310000024070769776|001014031000002407
REG|000032|15/11/2015|12:27:16|814866|659.80|0001230010140310000024030659802|001014031000002403
REG|000033|15/11/2015|12:30:00|814874|550.00|0001230010090310000021740549844|001009031000002174
REG|000034|15/11/2015|12:34:06|814878|491.00|0001230010530310000006440490629|001053031000000644
REG|000035|15/11/2015|12:37:36|814883|853.83|0001230010110310000014950853838|001011031000001495
REG|000036|15/11/2015|12:37:18|814884|550.00|0001230010020310000018230549495|001002031000001823
REG|000037|15/11/2015|12:38:46|814887|853.83|0001230010110310000014970853834|001011031000001497
REG|000038|15/11/2015|12:40:41|814892|853.83|0001230010110310000014970853834|001011031000001497
REG|000039|15/11/2015|12:43:04|814894|272.00|0001230010030310000018170262602|001003031000001817
REG|000040|15/11/2015|12:45:43|814904|380.42|0001230010040310000021370380420|001004031000002137
REG|000041|15/11/2015|12:53:25|814920|109.90|0001230010050310000020620109909|001005031000002062
REG|000042|15/11/2015|11:59:31|814928|550.00|0001230010380310000010570549494|001038031000001057
REG|000043|15/11/2015|12:59:17|814930|440.00|0001230010530310000001140439596|001053031000000114
REG|000044|15/11/2015|12:00:49|814940|581.00|0001230010050310000020680570867|001005031000002068
REG|000045|15/11/2015|13:03:46|814946|549.49|0001230010430310000015670549492|001043031000001567
REG|000046|15/11/2015|12:06:02|814951|549.49|0001230010380310000011280549493|001038031000001128
REG|000047|15/11/2015|13:12:08|814965|549.49|0001230010300310000023140549495|001030031000002314
REG|000048|15/11/2015|13:15:33|814973|220.00|0001230010500310000012630219808|001050031000001263
REG|000049|15/11/2015|13:16:10|814974|549.49|0001230010300310000023160549490|001030031000002316
REG|000050|15/11/2015|13:19:17|814982|549.49|0001230010300310000023120549499|001030031000002312
REG|000051|15/11/2015|13:20:21|814986|219.94|0001230010530310000006240219947|001053031000000624
REG|000052|15/11/2015|13:21:24|814989|549.49|0001230010140310000023500549493|001014031000002350
REG|000053|15/11/2015|13:25:09|814993|330.00|0001230010500310000012850329691|001050031000001285
REG|000054|15/11/2015|13:28:20|815004|769.29|0001230010020310000019030769291|001002031000001903
REG|000055|15/11/2015|13:32:28|815017|530.08|0001230010430310000016180530808|001043031000001618
REG|000056|15/11/2015|13:47:59|815054|550.00|0001230010500310000011730549494|001050031000001173
REG|000057|15/11/2015|13:48:25|815055|549.00|0001230010120310000018260549844|001012031000001826
REG|000058|15/11/2015|13:32:19|815063|329.90|0001230010540310000002300329906|001054031000000230
REG|000059|15/11/2015|13:54:41|815064|329.69|0001230010090310000018110329690|001009031000001811
REG|000060|15/11/2015|13:56:16|815067|456.50|0001230010430310000019090456502|001043031000001909
REG|000061|15/11/2015|13:57:24|815073|6000.00|0001230010140310000020900549495|001014031000002090
REG|000062|15/11/2015|13:01:48|815086|439.59|0001230010380310000010510439590|001038031000001051
REG|000063|15/11/2015|14:02:01|815087|330.00|0001230010530310000006180329904|001053031000000618
REG|000064|15/11/2015|14:12:03|815115|550.00|0001230010090310000018490549495|001009031000001849
REG|000065|15/11/2015|14:19:51|815129|769.29|0001230010430310000018340769292|001043031000001834
REG|000066|15/11/2015|14:20:56|815132|262.06|0001230010110310000013830262608|001011031000001383
REG|000067|15/11/2015|13:18:13|815134|549.49|0001230010050310000020440549490|001005031000002044
REG|000068|15/11/2015|14:22:34|815139|769.29|0001230010070310000007790769295|001007031000000779
REG|000069|15/11/2015|13:19:33|815141|549.49|0001230010050310000020430549492|001005031000002043
REG|000070|15/11/2015|14:30:21|815169|422.68|0001230010090310000014770422685|001009031000001477
REG|000071|15/11/2015|14:31:24|815172|769.77|0001230010220310000022780769774|001022031000002278
REG|000072|15/11/2015|14:31:35|815174|253.62|0001230010090310000014750253621|001009031000001475
REG|000073|15/11/2015|14:31:44|815176|549.49|0001230010300310000023130549497|001030031000002313
REG|000074|15/11/2015|14:41:14|815212|549.59|0001230010430310000017030549493|001043031000001703
REG|000075|15/11/2015|14:43:45|815214|549.49|0001230010430310000017030549493|001043031000001703
REG|000076|15/11/2015|14:45:34|815217|220.00|0001230010530310000006190219947|001053031000000619
REG|000077|15/11/2015|15:08:08|815308|160.62|0001230010430310000019170160628|001043031000001917
REG|000078|15/11/2015|15:11:51|815321|439.50|0001230010500310000012750439590|001050031000001275
REG|000079|15/11/2015|15:12:21|815323|549.84|0001230010040310000023300549843|001004031000002330
REG|000080|15/11/2015|15:12:56|815326|330.00|0001230010500310000012740329695|001050031000001274
REG|000081|15/11/2015|15:14:10|815332|220.00|0001230010500310000012730219807|001050031000001273
REG|000082|15/11/2015|15:19:04|815353|530.08|0001230010220310000016790530804|001022031000001679
REG|000083|15/11/2015|15:32:43|815391|549.84|0001230010300310000024670549848|001030031000002467
REG|000084|15/11/2015|15:32:57|815396|880.00|0001230010140310000019860439598|001014031000001986
REG|000085|15/11/2015|15:51:36|815453|530.00|0001230010460310000014590530800|001046031000001459
REG|000086|15/11/2015|14:55:16|815462|338.15|0001230010060310000010360338154|001006031000001036
REG|000087|15/11/2015|15:55:58|815464|769.29|0001230010500310000016030769296|001050031000001603
REG|000088|15/11/2015|15:58:24|815467|408.00|0001230010090310000015700407761|001009031000001570
REG|000089|15/11/2015|15:58:45|815469|418.96|0001230010430310000010530418962|001043031000001053
REG|000090|15/11/2015|15:59:40|815471|120.00|0001230010430310000010530418962|001043031000001053
REG|000091|15/11/2015|16:04:08|815482|439.59|0001230010460310000013850439595|001046031000001385
REG|000092|15/11/2015|16:08:20|815496|560.00|0001230010530310000005360559207|001053031000000536
REG|000093|15/11/2015|16:09:48|815500|560.00|0001230010530310000006700559550|001053031000000670
REG|000094|15/11/2015|16:11:22|815503|336.00|0001230010530310000005780335527|001053031000000578
REG|000095|15/11/2015|16:10:57|815504|330.00|0001230010090310000018170329697|001009031000001817
REG|000096|15/11/2015|16:12:44|815507|448.00|0001230010530310000005800447369|001053031000000580
REG|000097|15/11/2015|16:13:58|815510|448.00|0001230010530310000005770447365|001053031000000577
REG|000098|15/11/2015|16:14:49|815517|330.00|0001230010530310000005050329697|001053031000000505
REG|000099|15/11/2015|16:15:40|815518|491.00|0001230010530310000005040490328|001053031000000504
REG|000100|15/11/2015|16:16:39|815521|440.00|0001230010530310000005020439592|001053031000000502
REG|000101|15/11/2015|16:16:39|815522|549.84|0001230010500310000016430549843|001050031000001643
REG|000102|15/11/2015|16:17:40|815524|550.00|0001230010530310000004760549496|001053031000000476
REG|000103|15/11/2015|16:18:43|815527|330.00|0001230010530310000005070329693|001053031000000507
REG|000104|15/11/2015|16:19:51|815530|550.00|0001230010530310000004730549493|001053031000000473
REG|000105|15/11/2015|16:19:42|815531|549.84|0001230010300310000024620549849|001030031000002462
REG|000106|15/11/2015|16:23:07|815538|550.00|0001230010140310000021810549492|001014031000002181
REG|000107|15/11/2015|16:25:22|815540|560.00|0001230010530310000005340559202|001053031000000534
REG|000108|15/11/2015|16:25:10|815542|549.49|0001230010210310000035580549495|001021031000003558
REG|000109|15/11/2015|16:27:47|815549|439.59|0001230010300310000023110439594|001030031000002311
REG|000110|15/11/2015|16:30:47|815559|549.49|0001230010310310000017060549491|001031031000001706
REG|000111|15/11/2015|16:34:57|815583|500.00|0001230010140310000023470439592|001014031000002347
REG|000112|15/11/2015|16:36:08|815585|549.49|0001230010120310000017610549496|001012031000001761
REG|000113|15/11/2015|16:37:42|815592|549.84|0001230010090310000021710549840|001009031000002171
REG|000114|15/11/2015|16:40:05|815595|220.00|0001230010530310000005010219806|001053031000000501
REG|000115|15/11/2015|16:44:50|815601|550.00|0001230010220310000020330549498|001022031000002033
REG|000116|15/11/2015|16:48:33|815615|560.00|0001230010040310000020910559204|001004031000002091
REG|000117|15/11/2015|16:50:11|815618|150.00|0001230010460310000011410549499|001046031000001141
REG|000118|15/11/2015|16:50:06|815619|170.00|0001230010530310000004890169702|001053031000000489
REG|000119|15/11/2015|16:51:42|815621|220.00|0001230010530310000006170219941|001053031000000617
REG|000120|15/11/2015|16:54:20|815627|450.00|0001230010460310000013900447366|001046031000001390
REG|000121|15/11/2015|16:55:09|815628|279.00|0001230010530310000004920278986|001053031000000492
REG|000122|15/11/2015|16:58:09|815634|389.00|0001230010530310000004910388886|001053031000000491
REG|000123|15/11/2015|17:01:06|815644|389.00|0001230010530310000004880388882|001053031000000488
REG|000124|15/11/2015|17:03:28|815650|440.00|0001230010530310000004900439590|001053031000000490
REG|000125|15/11/2015|17:05:46|815659|500.00|0001230010530310000006220499808|001053031000000622
REG|000126|15/11/2015|17:07:52|815669|440.00|0001230010530310000004930439594|001053031000000493
REG|000127|15/11/2015|17:11:40|815674|109.00|0001230010420310000009640109901|001042031000000964
REG|000128|15/11/2015|17:13:26|815679|219.80|0001230010420310000009660219804|001042031000000966
REG|000129|15/11/2015|17:13:10|815681|329.69|0001230010430310000019750329692|001043031000001975
REG|000130|15/11/2015|17:15:03|815688|219.80|0001230010420310000009630219801|001042031000000963
REG|000131|15/11/2015|17:14:57|815690|225.00|0001230010490310000021530219802|001049031000002153
REG|000132|15/11/2015|17:15:49|815692|329.69|0001230010480310000002430329695|001048031000000243
REG|000133|15/11/2015|17:18:09|815697|1073.62|0001230010440310000029671073624|001044031000002967
REG|000134|15/11/2015|17:30:10|815729|549.84|0001230010120310000018280549840|001012031000001828
REG|000135|15/11/2015|17:31:28|815737|220.00|0001230010090310000018220219807|001009031000001822
REG|000136|15/11/2015|17:43:11|815767|550.00|0001230010120310000016830549492|001012031000001683
REG|000137|15/11/2015|17:43:43|815768|329.69|0001230010030310000015990329694|001003031000001599
REG|000138|15/11/2015|17:45:38|815770|219.80|0001230010420310000009650219806|001042031000000965
REG|000139|15/11/2015|17:46:08|815774|769.29|0001230010300310000023020769296|001030031000002302
REG|000140|15/11/2015|17:49:09|815787|600.00|0001230010140310000023290549497|001014031000002329
REG|000141|15/11/2015|17:49:57|815788|769.29|0001230010300310000023040769292|001030031000002304
REG|000142|15/11/2015|17:49:58|815789|252.00|0001230010090310000014570251383|001009031000001457
REG|000143|15/11/2015|17:51:14|815797|570.00|0001230010140310000023240549498|001014031000002324
REG|000144|15/11/2015|17:56:33|815811|846.78|0001230010470110000000200846787|001047011000000020
REG|000145|15/11/2015|17:59:04|815816|219.80|0001230010530310000004400219807|001053031000000440
REG|000146|15/11/2015|18:07:05|815834|550.00|0001230010020310000017890549498|001002031000001789
REG|000147|15/11/2015|18:06:57|815835|530.08|0001230010430310000016220530800|001043031000001622
REG|000148|15/11/2015|17:45:12|815836|549.49|0001230010540310000000060549499|001054031000000006
REG|000149|15/11/2015|18:08:13|815838|219.80|0001230010300310000023310219804|001030031000002331
REG|000150|15/11/2015|18:10:17|815841|329.90|0001230010050310000021510329904|001005031000002151
REG|000151|15/11/2015|18:11:17|815843|549.49|0001230010310310000018020549498|001031031000001802
REG|000152|15/11/2015|17:18:13|815860|422.68|0001230010060310000010350422687|001006031000001035
REG|000153|15/11/2015|18:25:02|815878|329.69|0001230010040310000019880329697|001004031000001988
REG|000154|15/11/2015|18:27:59|815885|549.49|0001230010300310000023150549492|001030031000002315
REG|000155|15/11/2015|18:30:08|815892|423.00|0001230010090310000014760422687|001009031000001476
REG|000156|15/11/2015|18:29:35|815899|407.76|0001230010520310000009060407768|001052031000000906
REG|000157|15/11/2015|18:31:21|815902|407.76|0001230010520310000009060407768|001052031000000906
REG|000158|15/11/2015|18:35:56|815904|549.49|0001230010460310000013250549498|001046031000001325
REG|000159|15/11/2015|18:47:40|815932|253.62|0001230010460310000010210253625|001046031000001021
REG|000160|15/11/2015|18:50:30|815940|330.00|0001230010530310000002540329692|001053031000000254
REG|000161|15/11/2015|18:59:13|815961|167.58|0001230010500310000009110167580|001050031000000911
REG|000162|15/11/2015|19:01:01|815967|251.38|0001230010500310000009130251380|001050031000000913
REG|000163|15/11/2015|19:08:57|815971|329.90|0001230010300310000024660329904|001030031000002466
REG|000164|15/11/2015|19:08:47|815984|439.59|0001230010530310000004270439592|001053031000000427
REG|000165|15/11/2015|19:14:36|815999|846.78|0001230010470110000000270846782|001047011000000027
REG|000166|15/11/2015|19:15:47|816000|549.49|0001230010020310000017830549491|001002031000001783
REG|000167|15/11/2015|19:29:27|816036|846.78|0001230010470110000002580846783|001047011000000258
REG|000168|15/11/2015|19:35:28|816057|447.36|0001230010460310000013880447360|001046031000001388
REG|000169|15/11/2015|19:36:37|816060|447.36|0001230010460310000013890447368|001046031000001389
REG|000170|15/11/2015|19:36:51|816061|450.00|0001230010460310000013920447362|001046031000001392
REG|000171|15/11/2015|19:41:50|816075|439.59|0001230010030310000019590439598|001003031000001959
REG|000172|15/11/2015|19:43:07|816077|530.00|0001230010460310000014610530806|001046031000001461
REG|000173|15/11/2015|19:49:11|816089|439.59|0001230010210310000034960439591|001021031000003496
REG|000174|15/11/2015|19:54:42|816093|253.62|0001230010110310000010890253626|001011031000001089
REG|000175|15/11/2015|19:55:58|816100|253.62|0001230010110310000010890253626|001011031000001089
REG|000176|15/11/2015|20:10:34|816161|330.00|0001230010470310000024000329691|001047031000002400
REG|000177|15/11/2015|20:19:20|816163|549.49|0001230010120310000017130549497|001012031000001713
REG|000178|15/11/2015|20:15:31|816167|418.96|0001230010140310000018400418963|001014031000001840
REG|000179|15/11/2015|20:19:17|816176|220.00|0001230010480310000002440219803|001048031000000244
REG|000180|15/11/2015|19:07:35|816177|177.53|0001230010370310000013830177538|001037031000001383
REG|000181|15/11/2015|20:20:58|816179|550.00|0001230010500310000014990549493|001050031000001499
REG|000182|15/11/2015|20:24:33|816185|549.49|0001230010210310000032840549498|001021031000003284
REG|000183|15/11/2015|20:25:50|816193|549.49|0001230010210310000032840549498|001021031000003284
REG|000184|15/11/2015|20:27:09|816195|549.49|0001230010520310000015130549497|001052031000001513
REG|000185|15/11/2015|20:28:06|816198|549.49|0001230010210310000032840549498|001021031000003284
REG|000186|15/11/2015|20:29:37|816201|549.49|0001230010210310000032840549498|001021031000003284
REG|000187|15/11/2015|20:33:57|816209|329.90|0001230010300310000024800329905|001030031000002480
REG|000188|15/11/2015|20:49:57|816232|167.58|0001230010430310000010560167588|001043031000001056
REG|000189|15/11/2015|20:55:10|816234|250.00|0001230010140310000021300549499|001014031000002130
REG|000190|15/11/2015|20:35:33|816236|549.49|0001230010540310000000230549494|001054031000000023
REG|000191|15/11/2015|21:23:20|816264|531.00|0001230010420310000010060530808|001042031000001006
REG|000192|15/11/2015|21:24:45|816265|531.00|0001230010420310000010040530803|001042031000001004
REG|000193|15/11/2015|21:19:42|816276|549.84|0001230010540310000002290549844|001054031000000229
REG|000194|15/11/2015|21:47:24|816281|549.49|0001230010070310000009340549490|001007031000000934
REG|000195|15/11/2015|21:47:04|816282|253.62|0001230010030310000015750253621|001003031000001575
REG|000196|15/11/2015|21:56:53|816287|251.38|0001230010520310000007250251384|001052031000000725
REG|000197|15/11/2015|22:15:09|816291|550.00|0001230010120310000018270549842|001012031000001827
REG|000198|15/11/2015|22:16:55|816294|439.59|0001230010470310000025220439590|001047031000002522
REG|000199|15/11/2015|23:16:21|816305|439.59|0001230010140310000023420439593|001014031000002342
TLR0001990000096707.46