REG|000118|18/10/2015|17:22:16|729102|418.96|0001230010030310000013940418964|001003031000001394
REG|000119|18/10/2015|17:23:09|729105|550.00|0001230010420310000007360549496|001042031000000736
REG|000120|18/10/2015|17:23:37|729108|770.00|0001230010430310000014050769291|001043031000001405
REG|000121|18/10/2015|17:27:36|729115|549.49|0001230010020310000017850549496|001002031000001785
REG|000122|18/10/2015|16:33:30|729124|549.49|0001230010380310000008860549497|001038031000000886
REG|000123|18/10/2015|17:34:53|729128|447.36|0001230010430310000017320447366|001043031000001732
REG|000124|18/10/2015|17:35:48|729130|450.00|0001230010460310000013900447366|001046031000001390
REG|000125|18/10/2015|16:35:53|729131|549.49|0001230010380310000008830549494|001038031000000883
REG|000126|18/10/2015|17:37:37|729137|846.78|0001230010470110000001750846789|001047011000000175
REG|000127|18/10/2015|17:40:36|729143|550.00|0001230010120310000012220549499|001012031000001222
REG|000128|18/10/2015|18:01:17|729173|253.62|0001230010090310000015190253626|001009031000001519
REG|000176|18/10/2015|22:43:10|729528|771.00|0001230010500310000013470769290|001050031000001347