REG|000001|12/07/2015|00:10:30|503756|418.96|0001230010140310000017760418969|001014031000001776
REG|000002|12/07/2015|00:12:23|503758|418.96|0001230010140310000017750418961|001014031000001775
REG|000003|12/07/2015|00:14:29|503760|418.96|0001230010140310000017780418965|001014031000001778
REG|000004|12/07/2015|00:17:04|503761|418.96|0001230010140310000017720418968|001014031000001772
REG|000005|12/07/2015|00:19:15|503762|167.58|0001230010140310000017740167587|001014031000001774
REG|000006|12/07/2015|07:18:26|503772|209.48|0001230010210310000026510209482|001021031000002651
REG|000007|12/07/2015|09:37:04|503804|418.96|0001230010500310000006200418964|001050031000000620
REG|000008|12/07/2015|10:01:05|503822|418.96|0001230010050310000010960418960|001005031000001096
REG|000009|12/07/2015|10:35:41|503840|959.68|0001230010470110000000460959684|001047011000000046
REG|000010|12/07/2015|11:11:55|503878|418.96|0001230010500310000004500418966|001050031000000450
REG|000011|12/07/2015|12:00:55|503929|418.96|0001230010210310000027680418960|001021031000002768
REG|000012|12/07/2015|12:13:38|503952|418.96|0001230010020310000008530418962|001002031000000853
REG|000013|12/07/2015|12:29:03|503963|502.74|0001230010300310000014650502743|001030031000001465
REG|000014|12/07/2015|12:31:33|503966|502.74|0001230010300310000014650502743|001030031000001465
REG|000015|12/07/2015|12:46:48|503973|418.96|0001230010210310000028730418968|001021031000002873
REG|000016|12/07/2015|12:58:34|503992|418.96|0001230010310310000011040418968|001031031000001104
REG|000017|12/07/2015|13:01:00|503994|377.06|0001230010310310000011080377066|001031031000001108
REG|000018|12/07/2015|13:16:06|504003|418.96|0001230010500310000006260418961|001050031000000626
REG|000019|12/07/2015|13:18:55|504010|167.58|0001230010060310000005880167588|001006031000000588
REG|000020|12/07/2015|13:30:16|504032|404.02|0001230010050310000010570404020|001005031000001057
REG|000021|12/07/2015|13:33:19|504044|418.96|0001230010050310000011930418965|001005031000001193
REG|000022|12/07/2015|11:37:23|504057|335.16|0001230010370310000009500335166|001037031000000950
REG|000023|12/07/2015|13:47:49|504059|418.96|0001230010500310000005770418966|001050031000000577
REG|000024|12/07/2015|13:50:57|504065|418.96|0001230010500310000006280418967|001050031000000628
REG|000025|12/07/2015|14:07:02|504094|418.96|0001230010520310000004140418968|001052031000000414
REG|000026|12/07/2015|14:18:27|504099|335.16|0001230010210310000026250335166|001021031000002625
REG|000027|12/07/2015|14:28:34|504117|418.96|0001230010060310000008760418964|001006031000000876
REG|000028|12/07/2015|15:19:53|504160|418.96|0001230010120310000008790418966|001012031000000879
REG|000029|12/07/2015|15:54:53|504203|418.96|0001230010520310000004280418968|001052031000000428
REG|000030|12/07/2015|16:06:42|504210|167.58|0001230010030310000011660167589|001003031000001166
REG|000031|12/07/2015|16:12:21|504214|418.96|0001230010210310000027650418966|001021031000002765
REG|000032|12/07/2015|16:17:45|504224|418.96|0001230010420310000002450418967|001042031000000245
REG|000033|12/07/2015|16:20:33|504235|418.96|0001230010120310000009510418963|001012031000000951
REG|000034|12/07/2015|17:13:42|504273|418.96|0001230010210310000025860418966|001021031000002586
REG|000035|12/07/2015|17:15:14|504274|418.96|0001230010500310000002840418969|001050031000000284
REG|000036|12/07/2015|17:17:12|504276|418.96|0001230010500310000002810418965|001050031000000281
REG|000037|12/07/2015|17:18:56|504280|418.96|0001230010500310000002830418961|001050031000000283
REG|000038|12/07/2015|17:20:51|504282|251.38|0001230010430310000006610251380|001043031000000661
REG|000039|12/07/2015|16:19:51|504285|251.38|0001230010050310000010270251382|001005031000001027
REG|000040|12/07/2015|17:37:51|504298|793.00|0001230010470110000000070793002|001047011000000007
REG|000041|12/07/2015|17:38:19|504299|418.96|0001230010420310000003550418964|001042031000000355
REG|000042|12/07/2015|16:44:30|504310|418.96|0001230010060310000007580418964|001006031000000758
REG|000043|12/07/2015|16:45:33|504312|418.96|0001230010060310000007570418966|001006031000000757
REG|000044|12/07/2015|16:46:53|504316|418.96|0001230010060310000007550418960|001006031000000755
REG|000045|12/07/2015|16:47:57|504317|418.96|0001230010060310000007590418962|001006031000000759
REG|000046|12/07/2015|16:49:42|504323|418.96|0001230010060310000007610418968|001006031000000761
REG|000047|12/07/2015|16:50:47|504326|418.96|0001230010060310000007560418968|001006031000000756
REG|000048|12/07/2015|16:51:56|504328|418.96|0001230010060310000007620418966|001006031000000762
REG|000049|12/07/2015|16:53:35|504334|418.96|0001230010060310000007600418960|001006031000000760
REG|000050|12/07/2015|18:23:17|504360|418.96|0001230010310310000010710418969|001031031000001071
REG|000051|12/07/2015|18:29:48|504365|251.38|0001230010470310000022170251380|001047031000002217
REG|000052|12/07/2015|18:32:29|504375|418.96|0001230010070310000004970418967|001007031000000497
REG|000053|12/07/2015|18:43:30|504391|418.96|0001230010070310000005310418963|001007031000000531
REG|000054|12/07/2015|18:56:15|504396|677.42|0001230010470110000001160677428|001047011000000116
REG|000055|12/07/2015|19:54:57|504461|293.26|0001230010130310000023960293261|001013031000002396
REG|000056|12/07/2015|20:21:50|504505|418.96|0001230010070310000004850418962|001007031000000485
REG|000057|12/07/2015|19:23:47|504507|404.02|0001230010050310000011160404024|001005031000001116
REG|000058|12/07/2015|20:30:08|504508|170.57|0001230010420310000005080170577|001042031000000508
REG|000059|12/07/2015|19:25:12|504512|404.02|0001230010050310000011160404024|001005031000001116
REG|000060|12/07/2015|20:40:18|504525|251.38|0001230010060310000006350251381|001006031000000635
REG|000061|12/07/2015|20:38:59|504527|418.96|0001230010310310000015900418968|001031031000001590
REG|000062|12/07/2015|20:45:36|504528|251.38|0001230010430310000006030251382|001043031000000603
REG|000063|12/07/2015|20:47:47|504531|251.38|0001230010430310000006030251382|001043031000000603
REG|000064|12/07/2015|21:18:10|504556|418.96|0001230010500310000006190418966|001050031000000619
REG|000065|12/07/2015|21:19:45|504559|418.96|0001230010030310000010760418967|001003031000001076
REG|000066|12/07/2015|21:23:06|504572|418.96|0001230010070310000004230418963|001007031000000423
REG|000067|12/07/2015|21:25:08|504573|418.96|0001230010070310000004230418963|001007031000000423
REG|000068|12/07/2015|21:34:09|504578|418.96|0001230010210310000025620418967|001021031000002562
REG|000069|12/07/2015|21:29:36|504579|418.96|0001230010070310000004260418966|001007031000000426
REG|000070|12/07/2015|21:31:05|504581|418.96|0001230010070310000004260418966|001007031000000426
REG|000071|12/07/2015|21:37:11|504582|335.16|0001230010210310000025650335164|001021031000002565
REG|000072|12/07/2015|21:40:15|504583|418.96|0001230010210310000025660418968|001021031000002566
REG|000073|12/07/2015|21:43:25|504586|418.96|0001230010210310000025670418966|001021031000002567
REG|000074|12/07/2015|21:45:50|504589|418.96|0001230010210310000025640418963|001021031000002564
REG|000075|12/07/2015|22:35:50|504617|418.96|0001230010050310000013370418968|001005031000001337
REG|000076|12/07/2015|22:37:40|504619|418.96|0001230010050310000013340418965|001005031000001334