REG|000001|24/06/2015|02:28:16|450819|418.96|0001230010110310000007900418967|001011031000000790
REG|000002|24/06/2015|08:04:48|451511|511.70|0001230010030110000000450511704|001003011000000045
REG|000003|24/06/2015|08:20:54|451539|251.38|0001230010110310000007910251382|001011031000000791
REG|000004|24/06/2015|08:30:11|451566|418.96|0001230010420310000001860418963|001042031000000186
REG|000005|24/06/2015|08:42:31|451593|586.54|0001230010470310000016530586543|001047031000001653
REG|000006|24/06/2015|08:46:42|451614|418.96|0001230010070310000006160418962|001007031000000616
REG|000007|24/06/2015|08:45:59|451628|251.38|0001230010110310000008460251384|001011031000000846
REG|000008|24/06/2015|08:56:36|451632|418.96|0001230010210310000022730418961|001021031000002273
REG|000009|24/06/2015|09:19:43|451703|404.02|0001230010210310000027450404026|001021031000002745
REG|000010|24/06/2015|09:27:43|451726|418.96|0001230010030310000011860418964|001003031000001186
REG|000011|24/06/2015|09:24:39|451732|335.16|0001230010520310000002810335165|001052031000000281
REG|000012|24/06/2015|09:29:46|451734|418.96|0001230010470310000016510418964|001047031000001651
REG|000013|24/06/2015|09:37:18|451760|418.96|0001230010020310000011080418960|001002031000001108
REG|000014|24/06/2015|09:48:57|451798|418.96|0001230010110310000008540418961|001011031000000854
REG|000015|24/06/2015|09:50:07|451814|335.16|0001230010110310000007830335166|001011031000000783
REG|000016|24/06/2015|10:00:05|451843|335.16|0001230010020310000007870335166|001002031000000787
REG|000017|24/06/2015|10:02:39|451851|418.96|0001230010110310000007810418966|001011031000000781
REG|000018|24/06/2015|10:03:07|451852|426.42|0001230010020310000011380426424|001002031000001138
REG|000019|24/06/2015|10:04:39|451860|418.96|0001230010110310000007860418965|001011031000000786
REG|000020|24/06/2015|10:05:59|451864|418.96|0001230010420310000003660418961|001042031000000366
REG|000021|24/06/2015|10:08:13|451873|418.96|0001230010420310000003610418962|001042031000000361
REG|000022|24/06/2015|10:19:27|451901|418.96|0001230010500310000004350418967|001050031000000435
REG|000023|24/06/2015|10:28:13|451938|586.54|0001230010310310000014890586546|001031031000001489
REG|000024|24/06/2015|10:28:54|451941|418.96|0001230010470310000016520418962|001047031000001652
REG|000025|24/06/2015|10:29:34|451944|418.96|0001230010310310000015510418960|001031031000001551
REG|000026|24/06/2015|10:30:18|451947|418.96|0001230010500310000004930418966|001050031000000493
REG|000027|24/06/2015|10:40:35|451981|418.96|0001230010210310000018380418962|001021031000001838
REG|000028|24/06/2015|10:40:54|451983|418.96|0001230010210310000027120418968|001021031000002712
REG|000029|24/06/2015|10:42:15|451989|418.96|0001230010210310000018370418964|001021031000001837
REG|000030|24/06/2015|10:42:38|451990|418.96|0001230010210310000026480418964|001021031000002648
REG|000031|24/06/2015|10:40:28|452002|167.58|0001230010090310000010680167584|001009031000001068
REG|000032|24/06/2015|10:41:59|452006|251.38|0001230010090310000010660251382|001009031000001066
REG|000033|24/06/2015|10:42:14|452008|418.96|0001230010310310000012550418968|001031031000001255
REG|000034|24/06/2015|10:47:05|452011|404.02|0001230010210310000027390404029|001021031000002739
REG|000035|24/06/2015|10:43:36|452018|418.96|0001230010310310000012540418961|001031031000001254
REG|000036|24/06/2015|11:00:31|452061|167.58|0001230010210310000026420167580|001021031000002642
REG|000037|24/06/2015|11:09:58|452090|586.54|0001230010470310000016620586544|001047031000001662
REG|000038|24/06/2015|11:19:17|452126|880.76|0001230010210310000027430880766|001021031000002743
REG|000039|24/06/2015|11:24:38|452144|418.96|0001230010500310000004160418967|001050031000000416
REG|000040|24/06/2015|11:26:10|452150|418.96|0001230010470310000016490418968|001047031000001649
REG|000041|24/06/2015|11:28:08|452160|251.38|0001230010090310000012100251386|001009031000001210
REG|000042|24/06/2015|11:24:19|452161|335.16|0001230010020310000010410335167|001002031000001041
REG|000043|24/06/2015|11:30:46|452184|251.38|0001230010420310000003640251383|001042031000000364
REG|000044|24/06/2015|11:43:07|452208|335.16|0001230010210310000022030335162|001021031000002203
REG|000045|24/06/2015|11:53:42|452266|418.96|0001230010030310000009290418968|001003031000000929
REG|000046|24/06/2015|11:58:41|452268|418.96|0001230010430310000007780418965|001043031000000778
REG|000047|24/06/2015|11:59:12|452273|418.96|0001230010430310000007820418967|001043031000000782
REG|000048|24/06/2015|11:54:58|452274|418.96|0001230010030310000009310418964|001003031000000931
REG|000049|24/06/2015|11:55:46|452279|335.16|0001230010300310000015080335166|001030031000001508
REG|000050|24/06/2015|11:57:05|452282|167.58|0001230010030310000009320167585|001003031000000932
REG|000051|24/06/2015|12:00:26|452297|418.96|0001230010030310000009340418968|001003031000000934
REG|000052|24/06/2015|12:08:29|452308|251.38|0001230010210310000015720251384|001021031000001572
REG|000053|24/06/2015|12:15:15|452347|586.54|0001230010110310000008580586545|001011031000000858
REG|000054|24/06/2015|12:23:45|452358|418.96|0001230010210310000018760418962|001021031000001876
REG|000055|24/06/2015|12:22:23|452370|418.96|0001230010110310000007820418964|001011031000000782
REG|000056|24/06/2015|12:22:52|452371|418.96|0001230010030310000009300418966|001003031000000930
REG|000057|24/06/2015|12:27:54|452391|335.16|0001230010310310000012570335168|001031031000001257
REG|000058|24/06/2015|12:29:02|452394|418.96|0001230010070310000003940418966|001007031000000394
REG|000059|24/06/2015|12:38:34|452431|251.38|0001230010310310000012310251386|001031031000001231
REG|000060|24/06/2015|12:43:12|452433|418.96|0001230010210310000026500418960|001021031000002650
REG|000061|24/06/2015|12:39:49|452437|167.58|0001230010310310000012350167583|001031031000001235
REG|000062|24/06/2015|10:47:42|452467|251.38|0001230010380310000005050251389|001038031000000505
REG|000063|24/06/2015|12:52:38|452469|418.96|0001230010310310000012770418962|001031031000001277
REG|000064|24/06/2015|10:48:42|452473|335.16|0001230010380310000005060335164|001038031000000506
REG|000065|24/06/2015|12:57:27|452491|418.96|0001230010470310000017140418960|001047031000001714
REG|000066|24/06/2015|13:07:59|452547|418.96|0001230010050310000013160418962|001005031000001316
REG|000067|24/06/2015|13:08:57|452551|418.96|0001230010070310000004030418965|001007031000000403
REG|000068|24/06/2015|13:14:27|452556|335.16|0001230010420310000003450335169|001042031000000345
REG|000069|24/06/2015|13:10:12|452557|167.58|0001230010050310000013150167587|001005031000001315
REG|000070|24/06/2015|13:11:51|452564|418.96|0001230010050310000013180418968|001005031000001318
REG|000071|24/06/2015|13:13:49|452571|335.16|0001230010050310000013170335164|001005031000001317
REG|000072|24/06/2015|13:19:34|452575|418.96|0001230010110310000004560418965|001011031000000456
REG|000073|24/06/2015|13:21:38|452580|418.96|0001230010110310000004580418961|001011031000000458
REG|000074|24/06/2015|13:28:14|452607|418.96|0001230010500310000003610418965|001050031000000361
REG|000075|24/06/2015|13:32:06|452639|418.96|0001230010090310000011530418961|001009031000001153
REG|000076|24/06/2015|13:33:21|452647|251.38|0001230010020310000011240251384|001002031000001124
REG|000077|24/06/2015|13:40:29|452657|418.96|0001230010500310000005290418967|001050031000000529
REG|000078|24/06/2015|13:48:36|452689|418.96|0001230010110310000007890418969|001011031000000789
REG|000079|24/06/2015|13:50:08|452699|670.32|0001230010110310000007920670324|001011031000000792
REG|000080|24/06/2015|13:57:35|452731|418.96|0001230010430310000007810418969|001043031000000781
REG|000081|24/06/2015|14:05:52|452768|418.96|0001230010500310000004870418968|001050031000000487
REG|000082|24/06/2015|14:08:24|452777|209.48|0001230010030310000010850209482|001003031000001085
REG|000083|24/06/2015|14:08:41|452793|83.08|0001230010030310000010440083082|001003031000001044
REG|000084|24/06/2015|14:19:37|452822|418.96|0001230010500310000001420418969|001050031000000142
REG|000085|24/06/2015|14:28:41|452884|586.54|0001230010110310000008450586542|001011031000000845
REG|000086|24/06/2015|14:28:43|452885|167.58|0001230010030310000011630167586|001003031000001163
REG|000087|24/06/2015|14:34:03|452890|418.96|0001230010140310000011830418968|001014031000001183
REG|000088|24/06/2015|12:37:17|452916|586.54|0001230010380310000006020586540|001038031000000602
REG|000089|24/06/2015|14:42:26|452921|418.96|0001230010470310000018470418968|001047031000001847
REG|000090|24/06/2015|14:49:06|452981|418.96|0001230010070310000006100418965|001007031000000610
REG|000091|24/06/2015|14:55:35|452987|418.96|0001230010520310000002720418960|001052031000000272
REG|000092|24/06/2015|14:51:15|452988|418.96|0001230010070310000006120418961|001007031000000612
REG|000093|24/06/2015|14:57:27|452995|418.96|0001230010520310000002710418962|001052031000000271
REG|000094|24/06/2015|14:53:28|452997|418.96|0001230010070310000006140418967|001007031000000614
REG|000095|24/06/2015|15:07:08|453042|418.96|0001230010430310000007800418961|001043031000000780
REG|000096|24/06/2015|15:17:12|453108|418.96|0001230010310310000012590418960|001031031000001259
REG|000097|24/06/2015|15:18:50|453114|586.54|0001230010310310000014900586544|001031031000001490
REG|000098|24/06/2015|15:25:29|453124|418.96|0001230010310310000012240418964|001031031000001224
REG|000099|24/06/2015|13:33:07|453172|167.58|0001230010380310000004950167589|001038031000000495
REG|000100|24/06/2015|15:41:34|453189|586.54|0001230010110310000008430586547|001011031000000843
REG|000101|24/06/2015|15:43:46|453199|586.54|0001230010110310000008420586549|001011031000000842
REG|000102|24/06/2015|15:41:25|453209|125.68|0001230010030310000010450125682|001003031000001045
REG|000103|24/06/2015|15:47:08|453212|341.14|0001230010210310000023720341148|001021031000002372
REG|000104|24/06/2015|16:01:47|453293|404.02|0001230010120310000008250404027|001012031000000825
REG|000105|24/06/2015|16:03:54|453302|251.38|0001230010110310000004640251386|001011031000000464
REG|000106|24/06/2015|16:08:32|453305|586.54|0001230010070310000003900586547|001007031000000390
REG|000107|24/06/2015|16:10:02|453309|586.54|0001230010070310000003900586547|001007031000000390
REG|000108|24/06/2015|16:31:47|453393|209.48|0001230010210310000026510209482|001021031000002651
REG|000109|24/06/2015|16:32:29|453396|677.42|0001230010470110000001120677427|001047011000000112
REG|000110|24/06/2015|16:33:50|453398|418.96|0001230010210310000026470418966|001021031000002647
REG|000111|24/06/2015|16:33:52|453399|335.16|0001230010030310000012260335162|001003031000001226
REG|000112|24/06/2015|16:36:30|453405|418.96|0001230010210310000026490418962|001021031000002649
REG|000113|24/06/2015|16:45:11|453422|418.96|0001230010030310000011770418963|001003031000001177
REG|000114|24/06/2015|16:53:32|453451|418.96|0001230010210310000017430418964|001021031000001743
REG|000115|24/06/2015|16:49:36|453455|418.96|0001230010110310000008370418966|001011031000000837
REG|000116|24/06/2015|16:51:10|453462|418.96|0001230010110310000008140418965|001011031000000814
REG|000117|24/06/2015|16:52:28|453465|418.96|0001230010110310000008560418966|001011031000000856
REG|000118|24/06/2015|17:10:33|453501|586.54|0001230010210310000018770586543|001021031000001877
REG|000119|24/06/2015|17:12:47|453510|341.14|0001230010500310000002630341140|001050031000000263
REG|000120|24/06/2015|17:14:15|453524|426.42|0001230010030310000010560426426|001003031000001056
REG|000121|24/06/2015|17:25:19|453565|418.96|0001230010090310000012200418968|001009031000001220
REG|000122|24/06/2015|17:31:39|453571|418.96|0001230010030310000012230418965|001003031000001223
REG|000123|24/06/2015|17:37:31|453592|167.58|0001230010140310000017420167584|001014031000001742
REG|000124|24/06/2015|17:41:03|453606|418.96|0001230010300310000013820418962|001030031000001382
REG|000125|24/06/2015|17:38:17|453612|418.96|0001230010020310000007950418965|001002031000000795
REG|000126|24/06/2015|17:43:17|453616|418.96|0001230010210310000022690418969|001021031000002269
REG|000127|24/06/2015|17:45:04|453634|418.96|0001230010460310000008200418968|001046031000000820
REG|000128|24/06/2015|17:45:52|453636|586.54|0001230010310310000014940586546|001031031000001494
REG|000129|24/06/2015|17:47:10|453639|586.54|0001230010310310000014910586542|001031031000001491
REG|000130|24/06/2015|17:52:14|453640|418.96|0001230010470310000014730418963|001047031000001473
REG|000131|24/06/2015|17:52:28|453641|341.14|0001230010500310000002660341143|001050031000000266
REG|000132|24/06/2015|17:48:29|453642|586.54|0001230010310310000014920586540|001031031000001492
REG|000133|24/06/2015|17:49:52|453643|418.96|0001230010310310000011000418966|001031031000001100
REG|000134|24/06/2015|17:51:16|453647|418.96|0001230010310310000010970418964|001031031000001097
REG|000135|24/06/2015|18:00:17|453660|418.96|0001230010210310000022480418963|001021031000002248
REG|000136|24/06/2015|18:04:44|453678|418.96|0001230010040310000015270418967|001004031000001527
REG|000137|24/06/2015|18:01:11|453681|323.21|0001230010110310000005610323212|001011031000000561
REG|000138|24/06/2015|18:02:01|453683|418.96|0001230010020310000011520418968|001002031000001152
REG|000139|24/06/2015|18:06:51|453685|251.38|0001230010040310000015250251388|001004031000001525
REG|000140|24/06/2015|18:07:54|453689|418.96|0001230010500310000004910418960|001050031000000491
REG|000141|24/06/2015|18:03:33|453690|242.42|0001230010110310000005620242428|001011031000000562
REG|000142|24/06/2015|18:08:31|453691|846.78|0001230010470110000000180846781|001047011000000018
REG|000143|24/06/2015|18:04:44|453696|323.21|0001230010110310000005600323214|001011031000000560
REG|000144|24/06/2015|18:07:17|453701|242.42|0001230010110310000005660242429|001011031000000566
REG|000145|24/06/2015|18:16:48|453713|335.16|0001230010040310000016060335163|001004031000001606
REG|000146|24/06/2015|18:25:52|453750|418.96|0001230010090310000010480418963|001009031000001048
REG|000147|24/06/2015|18:22:22|453752|418.96|0001230010110310000008470418965|001011031000000847
REG|000148|24/06/2015|18:31:39|453768|418.96|0001230010110310000007160418962|001011031000000716
REG|000149|24/06/2015|18:27:43|453769|418.96|0001230010050310000012310418963|001005031000001231
REG|000150|24/06/2015|18:32:57|453786|418.96|0001230010310310000015480418966|001031031000001548
REG|000151|24/06/2015|18:34:37|453790|418.96|0001230010310310000015490418964|001031031000001549
REG|000152|24/06/2015|18:41:57|453798|418.96|0001230010210310000018310418967|001021031000001831
REG|000153|24/06/2015|18:37:35|453800|418.96|0001230010310310000015520418968|001031031000001552
REG|000154|24/06/2015|18:44:01|453817|418.96|0001230010070310000006190418966|001007031000000619
REG|000155|24/06/2015|18:50:46|453842|418.96|0001230010030310000009330418960|001003031000000933
REG|000156|24/06/2015|18:55:40|453843|418.96|0001230010310310000011660418967|001031031000001166
REG|000157|24/06/2015|18:57:23|453853|251.38|0001230010090310000012060251384|001009031000001206
REG|000158|24/06/2015|19:00:37|453870|251.38|0001230010090310000012070251382|001009031000001207
REG|000159|24/06/2015|19:02:02|453872|251.38|0001230010090310000012080251380|001009031000001208
REG|000160|24/06/2015|19:07:19|453886|335.16|0001230010310310000014520335165|001031031000001452
REG|000161|24/06/2015|19:09:15|453901|83.08|0001230010070310000005670083084|001007031000000567
REG|000162|24/06/2015|17:14:26|453912|167.58|0001230010380310000002650167586|001038031000000265
REG|000163|24/06/2015|19:19:16|453915|418.96|0001230010420310000002820418960|001042031000000282
REG|000164|24/06/2015|19:21:25|453923|418.96|0001230010420310000001290418963|001042031000000129
REG|000165|24/06/2015|19:18:58|453927|255.86|0001230010030310000010600255868|001003031000001060
REG|000166|24/06/2015|19:26:48|453939|418.96|0001230010500310000001640418963|001050031000000164
REG|000167|24/06/2015|18:25:45|453951|209.48|0001230010060310000007960209488|001006031000000796
REG|000168|24/06/2015|19:31:37|453959|251.38|0001230010110310000004620251380|001011031000000462
REG|000169|24/06/2015|19:34:12|453977|251.38|0001230010110310000004590251386|001011031000000459
REG|000170|24/06/2015|19:36:33|453988|335.16|0001230010110310000004600335161|001011031000000460
REG|000171|24/06/2015|19:34:25|453993|167.58|0001230010070310000005610167583|001007031000000561
REG|000172|24/06/2015|19:56:00|454046|341.14|0001230010210310000021370341145|001021031000002137
REG|000173|24/06/2015|19:56:54|454054|426.42|0001230010210310000025740426429|001021031000002574
REG|000174|24/06/2015|19:58:31|454084|251.38|0001230010030310000011090251383|001003031000001109
REG|000175|24/06/2015|20:15:19|454125|418.96|0001230010070310000003610418965|001007031000000361
REG|000176|24/06/2015|20:16:42|454127|335.16|0001230010310310000011750335162|001031031000001175
REG|000177|24/06/2015|20:17:31|454130|426.42|0001230010030310000008320426421|001003031000000832
REG|000178|24/06/2015|20:18:15|454132|251.38|0001230010310310000011740251388|001031031000001174
REG|000179|24/06/2015|20:23:34|454134|255.86|0001230010430310000006690255863|001043031000000669
REG|000180|24/06/2015|20:19:13|454135|426.42|0001230010030310000008290426427|001003031000000829
REG|000181|24/06/2015|20:20:38|454138|426.42|0001230010030310000008300426425|001003031000000830
REG|000182|24/06/2015|20:25:29|454139|170.57|0001230010430310000006680170577|001043031000000668
REG|000183|24/06/2015|20:28:10|454145|167.58|0001230010030310000012240167586|001003031000001224
REG|000184|24/06/2015|20:52:08|454193|846.78|0001230010470110000000320846782|001047011000000032
REG|000185|24/06/2015|21:07:40|454216|418.96|0001230010490310000004590418969|001049031000000459
REG|000186|24/06/2015|21:08:59|454219|251.38|0001230010490310000004620251380|001049031000000462
REG|000187|24/06/2015|21:18:17|454235|418.96|0001230010070310000004310418966|001007031000000431
REG|000188|24/06/2015|21:25:52|454240|846.78|0001230010470110000000310846784|001047011000000031
REG|000189|24/06/2015|21:35:32|454263|251.38|0001230010140310000012910251386|001014031000001291
REG|000190|24/06/2015|21:39:49|454268|335.16|0001230010490310000004630335165|001049031000000463
REG|000191|24/06/2015|21:47:32|454274|846.78|0001230010470110000000350846785|001047011000000035
REG|000192|24/06/2015|22:01:47|454288|335.16|0001230010210310000025890335164|001021031000002589
REG|000193|24/06/2015|22:54:46|454318|341.14|0001230010430310000006650341141|001043031000000665
REG|000194|24/06/2015|22:58:52|454321|255.86|0001230010430310000006660255869|001043031000000666
REG|000195|24/06/2015|23:52:36|454331|418.96|0001230010310310000014540418967|001031031000001454