REG|000001|02/07/2015|05:17:48|484994|418.96|0001230010110310000007460418969|001011031000000746
REG|000002|02/07/2015|06:55:10|484996|418.96|0001230010210310000025130418960|001021031000002513
REG|000003|02/07/2015|07:21:24|484997|251.38|0001230010140310000016040251380|001014031000001604
REG|000004|02/07/2015|07:59:15|485006|335.16|0001230010040310000016060335163|001004031000001606
REG|000005|02/07/2015|08:07:03|485010|418.96|0001230010420310000003320418963|001042031000000332
REG|000006|02/07/2015|08:07:36|485012|418.96|0001230010500310000005010418966|001050031000000501
REG|000007|02/07/2015|08:08:53|485013|418.96|0001230010420310000003350418966|001042031000000335
REG|000008|02/07/2015|08:11:21|485014|418.96|0001230010420310000003300418967|001042031000000330
REG|000009|02/07/2015|08:13:22|485015|418.96|0001230010420310000003290418969|001042031000000329
REG|000010|02/07/2015|08:28:37|485027|418.96|0001230010140310000017840418963|001014031000001784
REG|000011|02/07/2015|08:30:13|485028|418.96|0001230010140310000017790418963|001014031000001779
REG|000012|02/07/2015|08:31:42|485029|418.96|0001230010140310000017830418965|001014031000001783
REG|000013|02/07/2015|08:33:14|485031|418.96|0001230010030310000010380418967|001003031000001038
REG|000014|02/07/2015|08:33:15|485032|418.96|0001230010140310000017820418967|001014031000001782
REG|000015|02/07/2015|08:34:07|485033|251.38|0001230010500310000004850251389|001050031000000485
REG|000016|02/07/2015|08:30:19|485035|418.96|0001230010310310000010860418967|001031031000001086
REG|000017|02/07/2015|08:31:45|485036|418.96|0001230010310310000010860418967|001031031000001086
REG|000018|02/07/2015|08:33:29|485040|418.96|0001230010070310000006190418966|001007031000000619
REG|000019|02/07/2015|08:45:41|485049|418.96|0001230010500310000004810418961|001050031000000481
REG|000020|02/07/2015|08:49:41|485054|418.96|0001230010070310000004210418967|001007031000000421
REG|000021|02/07/2015|09:19:38|485083|565.62|0001230010110310000008610565626|001011031000000861
REG|000022|02/07/2015|09:21:53|485085|418.96|0001230010130310000019460418960|001013031000001946
REG|000023|02/07/2015|09:23:17|485087|418.96|0001230010130310000019430418967|001013031000001943
REG|000024|02/07/2015|09:18:00|485088|418.96|0001230010020310000011230418969|001002031000001123
REG|000025|02/07/2015|09:26:40|485098|418.96|0001230010110310000008360418968|001011031000000836
REG|000026|02/07/2015|10:01:24|485130|418.96|0001230010470310000021170418965|001047031000002117
REG|000027|02/07/2015|10:02:49|485137|418.96|0001230010470310000021190418961|001047031000002119
REG|000028|02/07/2015|10:05:29|485143|251.38|0001230010090310000012070251382|001009031000001207
REG|000029|02/07/2015|10:15:03|485160|251.38|0001230010050310000010610251381|001005031000001061
REG|000030|02/07/2015|10:19:07|485163|418.96|0001230010090310000011990418964|001009031000001199
REG|000031|02/07/2015|10:46:35|485207|335.16|0001230010090310000012050335163|001009031000001205
REG|000032|02/07/2015|10:49:30|485215|418.96|0001230010210310000016600418960|001021031000001660
REG|000033|02/07/2015|10:57:27|485234|418.96|0001230010420310000001950418964|001042031000000195
REG|000034|02/07/2015|10:51:28|485236|418.96|0001230010070310000006220418960|001007031000000622
REG|000035|02/07/2015|10:56:21|485244|418.96|0001230010310310000012220418968|001031031000001222
REG|000036|02/07/2015|10:56:42|485248|426.42|0001230010020310000011370426426|001002031000001137
REG|000037|02/07/2015|10:58:38|485251|255.86|0001230010020310000011360255868|001002031000001136
REG|000038|02/07/2015|11:05:17|485253|335.16|0001230010500310000005800335164|001050031000000580
REG|000039|02/07/2015|10:01:29|485263|418.96|0001230010050310000013740418961|001005031000001374
REG|000040|02/07/2015|11:09:01|485267|418.96|0001230010310310000015510418960|001031031000001551
REG|000041|02/07/2015|11:03:59|485270|418.96|0001230010050310000013180418968|001005031000001318
REG|000042|02/07/2015|11:19:47|485278|251.38|0001230010520310000001470251381|001052031000000147
REG|000043|02/07/2015|11:16:19|485289|418.96|0001230010050310000010750418964|001005031000001075
REG|000044|02/07/2015|11:23:53|485292|418.96|0001230010430310000007290418968|001043031000000729
REG|000045|02/07/2015|11:17:31|485293|418.96|0001230010050310000010710418963|001005031000001071
REG|000046|02/07/2015|11:23:26|485307|418.96|0001230010090310000010340418963|001009031000001034
REG|000047|02/07/2015|11:33:53|485335|418.96|0001230010070310000006230418968|001007031000000623
REG|000048|02/07/2015|11:47:41|485351|418.96|0001230010210310000027600418967|001021031000002760
REG|000049|02/07/2015|12:06:51|485385|418.96|0001230010310310000011630418964|001031031000001163
REG|000050|02/07/2015|12:07:00|485387|293.26|0001230010030310000012730293264|001003031000001273
REG|000051|02/07/2015|12:08:28|485392|418.96|0001230010310310000011660418967|001031031000001166
REG|000052|02/07/2015|12:09:26|485394|418.96|0001230010030310000012680418960|001003031000001268
REG|000053|02/07/2015|12:00:50|485397|418.96|0001230010020310000011160418963|001002031000001116
REG|000054|02/07/2015|12:08:40|485406|167.58|0001230010090310000012110167580|001009031000001211
REG|000055|02/07/2015|12:19:50|485420|251.38|0001230010040310000015450251386|001004031000001545
REG|000056|02/07/2015|12:22:21|485438|251.38|0001230010050310000011950251387|001005031000001195
REG|000057|02/07/2015|12:36:11|485465|213.21|0001230010030310000011460213211|001003031000001146
REG|000058|02/07/2015|12:37:56|485468|213.21|0001230010030310000011490213215|001003031000001149
REG|000059|02/07/2015|12:47:20|485474|341.14|0001230010210310000021370341145|001021031000002137
REG|000060|02/07/2015|12:55:19|485500|418.96|0001230010500310000005620418968|001050031000000562
REG|000061|02/07/2015|12:56:18|485506|251.38|0001230010500310000001730251381|001050031000000173
REG|000062|02/07/2015|12:56:53|485509|418.96|0001230010500310000004360418965|001050031000000436
REG|000063|02/07/2015|12:59:28|485518|418.96|0001230010430310000007270418962|001043031000000727
REG|000064|02/07/2015|13:01:46|485544|418.96|0001230010110310000008040418966|001011031000000804
REG|000065|02/07/2015|13:10:47|485555|418.96|0001230010020310000011480418966|001002031000001148
REG|000066|02/07/2015|13:12:05|485559|418.96|0001230010520310000001940418966|001052031000000194
REG|000067|02/07/2015|13:14:07|485562|418.96|0001230010020310000011470418968|001002031000001147
REG|000068|02/07/2015|11:10:58|485569|251.38|0001230010370310000009450251389|001037031000000945
REG|000069|02/07/2015|13:19:15|485577|418.96|0001230010140310000017810418969|001014031000001781
REG|000070|02/07/2015|13:16:32|485593|418.96|0001230010030310000011950418965|001003031000001195
REG|000071|02/07/2015|13:31:18|485619|255.86|0001230010430310000007490255863|001043031000000749
REG|000072|02/07/2015|13:38:16|485638|251.38|0001230010040310000015460251384|001004031000001546
REG|000073|02/07/2015|13:40:32|485645|251.38|0001230010040310000015470251382|001004031000001547
REG|000074|02/07/2015|13:42:35|485649|418.96|0001230010500310000005050418967|001050031000000505
REG|000075|02/07/2015|13:44:45|485654|255.86|0001230010210310000021360255867|001021031000002136
REG|000076|02/07/2015|13:44:52|485677|596.98|0001230010110110000001700596985|001011011000000170
REG|000077|02/07/2015|13:54:13|485700|335.16|0001230010090310000010590335164|001009031000001059
REG|000078|02/07/2015|13:55:06|485702|418.96|0001230010090310000010610418966|001009031000001061
REG|000079|02/07/2015|13:55:14|485703|418.96|0001230010030310000011920418962|001003031000001192
REG|000080|02/07/2015|14:03:46|485707|418.96|0001230010210310000023960418960|001021031000002396
REG|000081|02/07/2015|14:06:36|485716|335.16|0001230010210310000027480335166|001021031000002748
REG|000082|02/07/2015|14:08:05|485720|846.78|0001230010470110000001360846781|001047011000000136
REG|000083|02/07/2015|14:08:32|485723|167.58|0001230010030310000012240167586|001003031000001224
REG|000084|02/07/2015|13:14:49|485749|167.58|0001230010370310000009470167581|001037031000000947
REG|000085|02/07/2015|14:25:35|485759|677.42|0001230010470110000001380677422|001047011000000138
REG|000086|02/07/2015|14:25:53|485761|418.96|0001230010470310000021160418967|001047031000002116
REG|000087|02/07/2015|14:25:20|485780|335.16|0001230010030310000010500335166|001003031000001050
REG|000088|02/07/2015|14:26:40|485785|418.96|0001230010030310000010460418960|001003031000001046
REG|000089|02/07/2015|14:26:42|485786|418.96|0001230010030310000012620418963|001003031000001262
REG|000090|02/07/2015|14:28:14|485790|167.58|0001230010030310000010490167587|001003031000001049
REG|000091|02/07/2015|14:29:33|485794|251.38|0001230010030310000010470251385|001003031000001047
REG|000092|02/07/2015|14:36:45|485797|404.02|0001230010300310000014460404023|001030031000001446
REG|000093|02/07/2015|12:33:53|485808|167.58|0001230010370310000006630167584|001037031000000663
REG|000094|02/07/2015|14:34:45|485811|255.86|0001230010090310000011120255864|001009031000001112
REG|000095|02/07/2015|14:41:54|485814|200.00|0001230010500310000000450200008|001050031000000045
REG|000096|02/07/2015|14:36:25|485818|170.57|0001230010090310000011140170572|001009031000001114
REG|000097|02/07/2015|14:44:20|485820|170.57|0001230010030310000012780170578|001003031000001278
REG|000098|02/07/2015|14:47:39|485826|484.82|0001230010300310000014520484825|001030031000001452
REG|000099|02/07/2015|14:49:23|485832|418.96|0001230010500310000005540418965|001050031000000554
REG|000100|02/07/2015|14:51:21|485838|418.96|0001230010500310000005550418962|001050031000000555
REG|000101|02/07/2015|14:53:48|485845|418.96|0001230010500310000005580418966|001050031000000558
REG|000102|02/07/2015|14:49:03|485850|418.96|0001230010050310000013250418963|001005031000001325
REG|000103|02/07/2015|13:43:15|485851|418.96|0001230010050310000011710418961|001005031000001171
REG|000104|02/07/2015|14:55:41|485853|418.96|0001230010500310000005560418960|001050031000000556
REG|000105|02/07/2015|14:50:29|485856|251.38|0001230010050310000013190251383|001005031000001319
REG|000106|02/07/2015|15:01:10|485861|251.38|0001230010210310000026080251385|001021031000002608
REG|000107|02/07/2015|15:02:26|485864|255.86|0001230010210310000023890255862|001021031000002389
REG|000108|02/07/2015|14:56:29|485867|335.16|0001230010030310000011970335165|001003031000001197
REG|000109|02/07/2015|15:07:47|485880|418.96|0001230010500310000006070418961|001050031000000607
REG|000110|02/07/2015|15:22:10|485916|418.96|0001230010470310000021180418963|001047031000002118
REG|000111|02/07/2015|15:36:48|485955|341.14|0001230010210310000023900341140|001021031000002390
REG|000112|02/07/2015|15:38:17|485959|426.42|0001230010210310000023910426428|001021031000002391
REG|000113|02/07/2015|15:32:12|485960|251.38|0001230010090310000012770251385|001009031000001277
REG|000114|02/07/2015|15:32:58|485964|213.21|0001230010030310000011480213217|001003031000001148
REG|000115|02/07/2015|15:34:13|485966|213.21|0001230010030310000011470213219|001003031000001147
REG|000116|02/07/2015|15:35:11|485969|418.96|0001230010030310000012640418969|001003031000001264
REG|000117|02/07/2015|15:35:33|485970|213.21|0001230010030310000011500213213|001003031000001150
REG|000118|02/07/2015|15:37:39|485980|293.26|0001230010030310000012650293260|001003031000001265
REG|000119|02/07/2015|15:39:02|485983|251.38|0001230010030310000012670251389|001003031000001267
REG|000120|02/07/2015|15:40:51|485991|418.96|0001230010030310000012630418961|001003031000001263
REG|000121|02/07/2015|15:52:02|486016|418.96|0001230010020310000011080418960|001002031000001108
REG|000122|02/07/2015|15:48:47|486024|418.96|0001230010030310000012660418964|001003031000001266
REG|000123|02/07/2015|15:58:23|486028|418.96|0001230010430310000001960418960|001043031000000196
REG|000124|02/07/2015|16:02:14|486035|418.96|0001230010030310000011910418964|001003031000001191
REG|000125|02/07/2015|15:59:44|486045|251.38|0001230010030310000012050251389|001003031000001205
REG|000126|02/07/2015|16:19:32|486103|418.96|0001230010110310000008550418968|001011031000000855
REG|000127|02/07/2015|16:20:57|486107|335.16|0001230010110310000007210335166|001011031000000721
REG|000128|02/07/2015|16:22:38|486111|426.42|0001230010070110000000650426423|001007011000000065
REG|000129|02/07/2015|16:49:02|486187|502.74|0001230010070310000004380502749|001007031000000438
REG|000130|02/07/2015|16:50:37|486194|418.96|0001230010070310000005910418967|001007031000000591
REG|000131|02/07/2015|17:01:07|486210|167.58|0001230010430310000004240167589|001043031000000424
REG|000132|02/07/2015|17:02:41|486215|167.58|0001230010430310000004260167584|001043031000000426
REG|000133|02/07/2015|17:03:49|486223|251.38|0001230010520310000003070251381|001052031000000307
REG|000134|02/07/2015|17:04:23|486229|426.42|0001230010030310000012800426422|001003031000001280
REG|000135|02/07/2015|17:04:51|486231|469.23|0001230010470310000021230469230|001047031000002123
REG|000136|02/07/2015|17:06:52|486241|426.42|0001230010030310000012830426426|001003031000001283
REG|000137|02/07/2015|17:07:20|486242|251.38|0001230010140310000015970251386|001014031000001597
REG|000138|02/07/2015|17:11:31|486248|251.38|0001230010420310000002930251384|001042031000000293
REG|000139|02/07/2015|17:12:38|486252|502.74|0001230010300310000015650502740|001030031000001565
REG|000140|02/07/2015|17:08:39|486259|335.16|0001230010090310000011740335161|001009031000001174
REG|000141|02/07/2015|17:15:04|486260|418.96|0001230010210310000027530418962|001021031000002753
REG|000142|02/07/2015|16:05:52|486281|167.58|0001230010050310000011690167588|001005031000001169
REG|000143|02/07/2015|17:12:56|486289|418.96|0001230010090310000011720418961|001009031000001172
REG|000144|02/07/2015|16:07:18|486291|251.38|0001230010050310000011670251386|001005031000001167
REG|000145|02/07/2015|17:23:05|486301|242.42|0001230010490310000011930242421|001049031000001193
REG|000146|02/07/2015|17:24:04|486306|404.02|0001230010420310000002400404026|001042031000000240
REG|000147|02/07/2015|17:24:25|486308|586.54|0001230010470310000020690586541|001047031000002069
REG|000148|02/07/2015|17:19:42|486312|251.38|0001230010030310000011010251380|001003031000001101
REG|000149|02/07/2015|17:26:07|486313|404.02|0001230010420310000002360404024|001042031000000236
REG|000150|02/07/2015|17:26:10|486314|404.02|0001230010490310000011880404021|001049031000001188
REG|000151|02/07/2015|17:20:43|486315|335.16|0001230010030310000011940335162|001003031000001194
REG|000152|02/07/2015|17:21:32|486318|251.38|0001230010100310000005440251387|001010031000000544
REG|000153|02/07/2015|17:27:59|486319|404.02|0001230010420310000002370404022|001042031000000237
REG|000154|02/07/2015|17:30:34|486327|335.16|0001230010030310000012260335162|001003031000001226
REG|000155|02/07/2015|17:24:33|486329|502.74|0001230010070310000004410502743|001007031000000441
REG|000156|02/07/2015|17:49:13|486379|418.96|0001230010520310000000640418961|001052031000000064
REG|000157|02/07/2015|17:50:46|486384|418.96|0001230010210310000023350418968|001021031000002335
REG|000158|02/07/2015|17:50:49|486386|418.96|0001230010210310000016790418960|001021031000001679
REG|000159|02/07/2015|17:51:09|486387|418.96|0001230010520310000000660418966|001052031000000066
REG|000160|02/07/2015|17:51:55|486390|418.96|0001230010520310000002060418968|001052031000000206
REG|000161|02/07/2015|17:53:24|486398|418.96|0001230010210310000023390418960|001021031000002339
REG|000162|02/07/2015|17:56:09|486408|209.48|0001230010210310000023340209485|001021031000002334
REG|000163|02/07/2015|17:58:31|486417|251.38|0001230010210310000023380251389|001021031000002338
REG|000164|02/07/2015|17:53:34|486422|418.96|0001230010090310000010620418964|001009031000001062
REG|000165|02/07/2015|17:56:25|486425|418.96|0001230010420310000000610418968|001042031000000061
REG|000166|02/07/2015|18:05:19|486441|682.27|0001230010210310000023800682270|001021031000002380
REG|000167|02/07/2015|18:06:11|486444|404.02|0001230010490310000011840404020|001049031000001184
REG|000168|02/07/2015|18:00:33|486450|418.96|0001230010420310000000640418962|001042031000000064
REG|000169|02/07/2015|18:08:12|486455|251.38|0001230010030310000010360251388|001003031000001036
REG|000170|02/07/2015|17:02:14|486459|418.96|0001230010050310000011580418968|001005031000001158
REG|000171|02/07/2015|18:03:15|486466|418.96|0001230010420310000000600418960|001042031000000060
REG|000172|02/07/2015|18:11:19|486478|251.38|0001230010490310000014470251380|001049031000001447
REG|000173|02/07/2015|18:12:49|486480|418.96|0001230010490310000014430418962|001049031000001443
REG|000174|02/07/2015|18:06:41|486481|418.96|0001230010420310000000630418964|001042031000000063
REG|000175|02/07/2015|18:07:59|486485|251.38|0001230010030310000011000251382|001003031000001100
REG|000176|02/07/2015|18:09:04|486488|418.96|0001230010420310000000630418964|001042031000000063
REG|000177|02/07/2015|18:11:30|486498|418.96|0001230010420310000000610418968|001042031000000061
REG|000178|02/07/2015|18:20:50|486510|255.86|0001230010030310000012750255862|001003031000001275
REG|000179|02/07/2015|18:23:41|486520|426.42|0001230010030310000012770426428|001003031000001277
REG|000180|02/07/2015|18:25:20|486528|255.86|0001230010030310000012760255860|001003031000001276
REG|000181|02/07/2015|18:25:37|486531|1129.01|0001230010210110000000461129019|001021011000000046
REG|000182|02/07/2015|18:26:30|486536|502.74|0001230010210310000019340502747|001021031000001934
REG|000183|02/07/2015|18:27:11|486542|426.42|0001230010030310000012790426424|001003031000001279
REG|000184|02/07/2015|18:39:21|486575|418.96|0001230010470310000014730418963|001047031000001473
REG|000185|02/07/2015|18:40:52|486583|335.16|0001230010470310000016360335169|001047031000001636
REG|000186|02/07/2015|18:41:29|486584|251.38|0001230010420310000003220251381|001042031000000322
REG|000187|02/07/2015|18:42:46|486588|418.96|0001230010210310000027560418965|001021031000002756
REG|000188|02/07/2015|18:48:11|486609|251.38|0001230010030310000012080251383|001003031000001208
REG|000189|02/07/2015|18:56:24|486644|335.16|0001230010500310000001760335161|001050031000000176
REG|000190|02/07/2015|19:01:52|486662|418.96|0001230010420310000001290418963|001042031000000129
REG|000191|02/07/2015|19:02:20|486665|255.86|0001230010040310000015500255866|001004031000001550
REG|000192|02/07/2015|19:03:37|486670|255.86|0001230010040310000015480255860|001004031000001548
REG|000193|02/07/2015|19:04:51|486677|255.86|0001230010040310000015490255868|001004031000001549
REG|000194|02/07/2015|19:06:10|486685|255.86|0001230010040310000015510255864|001004031000001551
REG|000195|02/07/2015|19:12:02|486720|251.38|0001230010020310000006750251386|001002031000000675
REG|000196|02/07/2015|19:19:49|486740|335.16|0001230010020310000007970335165|001002031000000797
REG|000197|02/07/2015|19:30:19|486745|418.96|0001230010210310000019770418968|001021031000001977
REG|000198|02/07/2015|18:24:04|486746|418.96|0001230010050310000011700418963|001005031000001170
REG|000199|02/07/2015|19:36:44|486773|251.38|0001230010030310000010990251386|001003031000001099
REG|000200|02/07/2015|19:38:05|486777|251.38|0001230010030310000010980251388|001003031000001098
REG|000201|02/07/2015|19:38:27|486779|251.38|0001230010030310000010150251382|001003031000001015
REG|000202|02/07/2015|19:39:24|486782|426.42|0001230010030110000000440426427|001003011000000044
REG|000203|02/07/2015|19:39:34|486783|418.96|0001230010070310000004430418961|001007031000000443
REG|000204|02/07/2015|19:40:24|486786|418.96|0001230010030310000010160418963|001003031000001016
REG|000205|02/07/2015|19:47:21|486787|418.96|0001230010430310000005970418969|001043031000000597
REG|000206|02/07/2015|19:56:31|486812|255.86|0001230010210310000025230255866|001021031000002523
REG|000207|02/07/2015|20:22:16|486860|418.96|0001230010500310000004430418961|001050031000000443
REG|000208|02/07/2015|20:21:20|486869|418.96|0001230010310310000015490418964|001031031000001549
REG|000209|02/07/2015|20:48:47|486918|418.96|0001230010490310000012810418966|001049031000001281
REG|000210|02/07/2015|20:51:04|486937|418.96|0001230010050310000010340418961|001005031000001034
REG|000211|02/07/2015|20:58:48|486939|586.54|0001230010210310000023950586545|001021031000002395
REG|000212|02/07/2015|20:52:36|486940|251.38|0001230010050310000010350251385|001005031000001035
REG|000213|02/07/2015|21:03:33|486958|418.96|0001230010210310000025860418966|001021031000002586
REG|000214|02/07/2015|21:14:15|486994|167.58|0001230010420310000000720167588|001042031000000072
REG|000215|02/07/2015|21:14:48|486995|846.78|0001230010210110000000480846783|001021011000000048
REG|000216|02/07/2015|21:15:35|486996|167.58|0001230010420310000000710167580|001042031000000071
REG|000217|02/07/2015|21:19:15|487001|418.96|0001230010210310000027320418966|001021031000002732
REG|000218|02/07/2015|21:21:09|487008|251.38|0001230010210310000027350251386|001021031000002735
REG|000219|02/07/2015|21:26:47|487015|418.96|0001230010210310000027300418960|001021031000002730
REG|000220|02/07/2015|21:28:02|487020|418.96|0001230010210310000027310418968|001021031000002731
REG|000221|02/07/2015|21:28:47|487025|418.96|0001230010210310000027340418962|001021031000002734
REG|000222|02/07/2015|21:30:26|487029|418.96|0001230010210310000027330418964|001021031000002733
REG|000223|02/07/2015|21:33:53|487034|251.38|0001230010210310000026760251382|001021031000002676
REG|000224|02/07/2015|21:46:53|487054|404.02|0001230010300310000014480404029|001030031000001448
REG|000225|02/07/2015|22:15:42|487075|426.42|0001230010030310000012820426428|001003031000001282
REG|000226|02/07/2015|22:17:07|487078|255.86|0001230010030310000012840255864|001003031000001284
REG|000227|02/07/2015|22:18:28|487079|426.42|0001230010030310000012810426420|001003031000001281
REG|000228|02/07/2015|22:40:02|487085|418.96|0001230010310310000014540418967|001031031000001454