1|06/05/15|A|15|00|692||00104303100000053300|418.96|00002186
2|06/05/15|A|07|31|692||418.96|0.00|00002186
3|06/05/15|A|15|00|692||00104303100000053100|418.96|00002197
4|06/05/15|A|07|31|692||418.96|0.00|00002197
5|06/05/15|A|15|00|692||0010430310000053400|418.96|00002198
6|06/05/15|A|07|31|692||418.96|0.00|00002198
7|06/05/15|A|15|00|692||00104303100000031500|426.42|00002353
8|06/05/15|A|07|31|692||426.42|0.00|00002353
9|06/05/15|A|15|00|692||00104303100000031800|426.42|00002356
10|06/05/15|A|07|31|692||426.42|0.00|00002356